{
	"editor": {
		"allAngles": false,
		"entityTextureMode": false
	},
	"textureWidth": 64,
	"textureHeight": 64,
	"textureSizes": {
	},
	"textures": {
		"woodfishingpole": "woodfishingpole"
	},
	"elements": [
		{
			"name": "Handle",
			"from": [ -5.0, 0.0, 7.5 ],
			"to": [ 11.0, 1.0, 8.5 ],
			"rotationOrigin": [ 0.0, 0.0, 8.0 ],
			"faces": {
				"north": { "texture": "#woodfishingpole", "uv": [ 0.0, 63.0, 16.0, 64.0 ] },
				"east": { "texture": "#woodfishingpole", "uv": [ 16.0, 63.0, 17.0, 64.0 ] },
				"south": { "texture": "#woodfishingpole", "uv": [ 17.0, 63.0, 33.0, 64.0 ] },
				"west": { "texture": "#woodfishingpole", "uv": [ 33.0, 63.0, 34.0, 64.0 ] },
				"up": { "texture": "#woodfishingpole", "uv": [ 0.0, 62.0, 16.0, 63.0 ] },
				"down": { "texture": "#woodfishingpole", "uv": [ 16.0, 62.0, 32.0, 63.0 ] }
			}
		},
		{
			"name": "Handle2",
			"from": [ 10.9, -0.1, 7.6 ],
			"to": [ 22.9, 0.7, 8.4 ],
			"rotationOrigin": [ 15.9, 0.0, 8.0 ],
			"rotationZ": -3.0,
			"faces": {
				"north": { "texture": "#woodfishingpole", "uv": [ 0.0, 61.5, 12.0, 62.0 ] },
				"east": { "texture": "#woodfishingpole", "uv": [ 12.0, 61.5, 12.5, 62.0 ] },
				"south": { "texture": "#woodfishingpole", "uv": [ 12.5, 61.5, 24.5, 62.0 ] },
				"west": { "texture": "#woodfishingpole", "uv": [ 24.5, 61.5, 25.0, 62.0 ] },
				"up": { "texture": "#woodfishingpole", "uv": [ 0.0, 61.0, 12.0, 61.5 ] },
				"down": { "texture": "#woodfishingpole", "uv": [ 12.0, 61.0, 24.0, 61.5 ] }
			}
		},
		{
			"name": "Handle3",
			"from": [ 22.8, -1.0, 7.65 ],
			"to": [ 28.8, -0.3, 8.35 ],
			"rotationOrigin": [ 27.8, -1.0, 8.0 ],
			"rotationZ": -7.0,
			"faces": {
				"north": { "texture": "#woodfishingpole", "uv": [ 0.0, 60.5, 6.0, 61.0 ] },
				"east": { "texture": "#woodfishingpole", "uv": [ 6.0, 60.5, 6.5, 61.0 ] },
				"south": { "texture": "#woodfishingpole", "uv": [ 6.5, 60.5, 12.5, 61.0 ] },
				"west": { "texture": "#woodfishingpole", "uv": [ 12.5, 60.5, 13.0, 61.0 ] },
				"up": { "texture": "#woodfishingpole", "uv": [ 0.0, 60.0, 6.0, 60.5 ] },
				"down": { "texture": "#woodfishingpole", "uv": [ 6.0, 60.0, 12.0, 60.5 ] }
			},
			"children": [
				{
					"name": "Leaf",
					"from": [ 0.0, 0.5, 1.0 ],
					"to": [ 2.0, 3.5, 1.0 ],
					"rotationOrigin": [ 0.0, 1.0, 1.0 ],
					"rotationX": 22.5,
					"faces": {
						"north": { "texture": "#woodfishingpole", "uv": [ 0.0, 57.0, 2.0, 60.0 ] },
						"east": { "texture": "#woodfishingpole", "uv": [ 2.0, 57.0, 2.5, 60.0 ] },
						"south": { "texture": "#woodfishingpole", "uv": [ 2.5, 57.0, 4.5, 60.0 ] },
						"west": { "texture": "#woodfishingpole", "uv": [ 4.5, 57.0, 5.0, 60.0 ] },
						"up": { "texture": "#woodfishingpole", "uv": [ 0.0, 56.5, 2.0, 57.0 ] },
						"down": { "texture": "#woodfishingpole", "uv": [ 2.0, 56.5, 4.0, 57.0 ] }
					}
				}
			]
		}
	]}