{
	"editor": {
		"allAngles": false,
		"entityTextureMode": false
	},
	"textureWidth": 16,
	"textureHeight": 16,
	"textureSizes": {
	},
	"textures": {
		"base": "animalia/bullshark"
	},
	"elements": [
		{
			"name": "Origin",
			"from": [ 8.0, 8.0, 8.0 ],
			"to": [ 8.0, 8.0, 8.0 ],
			"rotationOrigin": [ 8.0, 8.0, 8.0 ],
			"faces": {
				"north": { "texture": "#base", "uv": [ 0.0, 0.0, 0.5, 0.5 ] },
				"east": { "texture": "#null", "uv": [ 0.0, 0.0, 0.5, 0.5 ] },
				"south": { "texture": "#null", "uv": [ 0.0, 0.0, 0.5, 0.5 ] },
				"west": { "texture": "#null", "uv": [ 0.0, 0.0, 0.5, 0.5 ] },
				"up": { "texture": "#null", "uv": [ 0.0, 0.0, 0.5, 0.5 ] },
				"down": { "texture": "#null", "uv": [ 0.0, 0.0, 0.5, 0.5 ] }
			},
			"children": [
				{
					"name": "MidBody",
					"from": [ -16.0, -1.2, -12.2 ],
					"to": [ 10.0, 17.0, 10.2 ],
					"rotationOrigin": [ -16.0, 6.0, -2.0 ],
					"faces": {
						"north": { "texture": "#base", "uv": [ 7.25, 6.5, 13.75, 14.25 ], "autoUv": false },
						"east": { "texture": "#base", "uv": [ 8.25, 4.0, 14.0, 11.5 ], "autoUv": false },
						"south": { "texture": "#base", "uv": [ 6.75, 6.25, 14.25, 14.5 ], "autoUv": false },
						"west": { "texture": "#base", "uv": [ 8.0, 6.0, 14.5, 14.25 ], "autoUv": false },
						"up": { "texture": "#base", "uv": [ 10.0, 0.5, 15.25, 4.75 ], "autoUv": false },
						"down": { "texture": "#base", "uv": [ 1.75, 13.0, 7.5, 16.0 ], "autoUv": false }
					},
					"children": [
						{
							"name": "LPectorialfin",
							"from": [ 6.0, 2.0, 20.0 ],
							"to": [ 16.0, 4.0, 34.0 ],
							"rotationOrigin": [ 11.0, 2.0, 20.0 ],
							"rotationX": 35.0,
							"faces": {
								"north": { "texture": "#base", "uv": [ 8.25, 2.0, 11.75, 4.5 ], "autoUv": false },
								"east": { "texture": "#base", "uv": [ 6.75, 1.75, 10.75, 5.25 ], "autoUv": false },
								"south": { "texture": "#base", "uv": [ 6.0, 1.5, 9.5, 3.5 ], "autoUv": false },
								"west": { "texture": "#base", "uv": [ 7.25, 1.75, 11.75, 3.25 ], "autoUv": false },
								"up": { "texture": "#base", "uv": [ 10.0, 2.0, 15.0, 7.5 ], "autoUv": false },
								"down": { "texture": "#base", "uv": [ 2.25, 13.0, 5.25, 15.5 ], "autoUv": false }
							}
						},
						{
							"name": "Dorsalfin",
							"from": [ 8.0, 18.0, 8.0 ],
							"to": [ 26.0, 20.0, 14.0 ],
							"rotationOrigin": [ 8.0, 18.0, 8.0 ],
							"faces": {
								"north": { "texture": "#base", "uv": [ 5.5, 1.0, 14.25, 3.0 ], "autoUv": false },
								"east": { "texture": "#base", "uv": [ 8.75, 1.0, 14.75, 3.0 ] },
								"south": { "texture": "#base", "uv": [ 5.5, 0.25, 14.5, 2.0 ], "autoUv": false },
								"west": { "texture": "#base", "uv": [ 9.25, 2.5, 15.25, 4.5 ] },
								"up": { "texture": "#base", "uv": [ 10.5, 0.75, 14.75, 3.75 ], "autoUv": false },
								"down": { "texture": "#base", "uv": [ 6.25, 0.5, 13.5, 4.25 ], "autoUv": false }
							},
							"children": [
								{
									"name": "DorsalFintip",
									"from": [ -2.0, -6.0, 2.0 ],
									"to": [ 10.0, 14.0, 4.0 ],
									"rotationOrigin": [ 6.0, -6.0, 3.0 ],
									"rotationZ": -45.0,
									"faces": {
										"north": { "texture": "#base", "uv": [ 9.75, 3.5, 15.75, 7.5 ], "autoUv": false },
										"east": { "texture": "#base", "uv": [ 12.0, 1.0, 15.0, 8.5 ], "autoUv": false },
										"south": { "texture": "#base", "uv": [ 9.25, 3.5, 13.75, 8.5 ], "autoUv": false },
										"west": { "texture": "#base", "uv": [ 13.5, 1.0, 15.5, 11.0 ], "autoUv": false },
										"up": { "texture": "#base", "uv": [ 7.75, 1.5, 14.0, 3.5 ], "autoUv": false },
										"down": { "texture": "#base", "uv": [ 9.25, 1.0, 14.5, 2.75 ], "autoUv": false }
									}
								}
							]
						},
						{
							"name": "RPectorialfin",
							"from": [ 6.0, 2.0, -12.0 ],
							"to": [ 16.0, 4.0, 2.0 ],
							"rotationOrigin": [ 11.0, 2.0, 2.0 ],
							"rotationX": -35.0,
							"faces": {
								"north": { "texture": "#base", "uv": [ 8.0, 4.0, 12.5, 7.5 ], "autoUv": false },
								"east": { "texture": "#base", "uv": [ 8.75, 3.25, 12.75, 6.25 ], "autoUv": false },
								"south": { "texture": "#base", "uv": [ 8.0, 5.25, 12.0, 8.25 ], "autoUv": false },
								"west": { "texture": "#base", "uv": [ 9.0, 6.25, 13.0, 8.25 ], "autoUv": false },
								"up": { "texture": "#base", "uv": [ 10.25, 2.5, 15.75, 8.5 ], "rotation": 90, "autoUv": false },
								"down": { "texture": "#base", "uv": [ 2.0, 14.0, 5.75, 15.0 ], "autoUv": false }
							}
						},
						{
							"name": "LowerBody",
							"from": [ 22.0, 0.2, 2.0 ],
							"to": [ 48.0, 16.2, 20.0 ],
							"rotationOrigin": [ 22.0, 7.0, 10.6 ],
							"faces": {
								"north": { "texture": "#base", "uv": [ 7.0, 8.25, 13.5, 13.75 ], "autoUv": false },
								"east": { "texture": "#base", "uv": [ 9.0, 5.25, 14.25, 11.25 ], "autoUv": false },
								"south": { "texture": "#base", "uv": [ 8.0, 7.5, 13.75, 13.75 ], "autoUv": false },
								"west": { "texture": "#base", "uv": [ 10.5, 3.75, 15.5, 12.25 ], "autoUv": false },
								"up": { "texture": "#base", "uv": [ 7.5, 0.25, 13.5, 4.25 ], "autoUv": false },
								"down": { "texture": "#base", "uv": [ 1.5, 13.0, 6.0, 15.75 ], "autoUv": false }
							},
							"children": [
								{
									"name": "Tail",
									"from": [ 24.0, 2.0, 2.0 ],
									"to": [ 48.0, 14.0, 16.0 ],
									"rotationOrigin": [ 24.0, 8.0, 9.0 ],
									"faces": {
										"north": { "texture": "#base", "uv": [ 8.5, 4.75, 15.5, 8.75 ], "autoUv": false },
										"east": { "texture": "#base", "uv": [ 10.25, 5.75, 15.0, 13.0 ], "autoUv": false },
										"south": { "texture": "#base", "uv": [ 8.25, 5.75, 14.75, 12.75 ], "autoUv": false },
										"west": { "texture": "#base", "uv": [ 7.0, 5.75, 13.25, 14.0 ], "autoUv": false },
										"up": { "texture": "#base", "uv": [ 8.0, 0.25, 15.0, 4.75 ], "autoUv": false },
										"down": { "texture": "#base", "uv": [ 11.75, 13.5, 15.75, 15.5 ], "autoUv": false }
									},
									"children": [
										{
											"name": "Cube8",
											"from": [ 22.0, 1.0, 2.0 ],
											"to": [ 32.0, 10.0, 12.0 ],
											"rotationOrigin": [ 22.0, 4.0, 7.0 ],
											"faces": {
												"north": { "texture": "#base", "uv": [ 8.75, 4.0, 14.75, 10.5 ], "autoUv": false },
												"east": { "texture": "#base", "uv": [ 8.25, 0.5, 14.25, 6.0 ], "autoUv": false },
												"south": { "texture": "#base", "uv": [ 9.0, 2.25, 14.5, 9.25 ], "autoUv": false },
												"west": { "texture": "#base", "uv": [ 8.75, 0.25, 14.25, 7.25 ], "autoUv": false },
												"up": { "texture": "#base", "uv": [ 9.5, 1.0, 15.5, 8.5 ], "autoUv": false },
												"down": { "texture": "#base", "uv": [ 0.75, 13.25, 5.75, 15.75 ], "autoUv": false }
											},
											"children": [
												{
													"name": "Cube9",
													"from": [ 4.0, 2.0, 4.0 ],
													"to": [ 14.0, 24.0, 6.0 ],
													"rotationOrigin": [ 8.0, 4.0, 4.0 ],
													"rotationZ": -50.0,
													"faces": {
														"north": { "texture": "#base", "uv": [ 10.5, 3.5, 14.0, 8.25 ], "autoUv": false },
														"east": { "texture": "#base", "uv": [ 13.5, 0.75, 15.5, 9.25 ], "autoUv": false },
														"south": { "texture": "#base", "uv": [ 12.0, 0.75, 15.5, 7.0 ], "autoUv": false },
														"west": { "texture": "#base", "uv": [ 12.5, 1.0, 15.5, 12.5 ], "autoUv": false },
														"up": { "texture": "#base", "uv": [ 8.5, 0.5, 14.5, 2.5 ], "autoUv": false },
														"down": { "texture": "#base", "uv": [ 9.75, 0.5, 15.0, 2.5 ], "autoUv": false }
													},
													"children": [
														{
															"name": "Cube11",
															"from": [ 0.6, 18.0, 0.2 ],
															"to": [ 6.6, 30.0, 1.8 ],
															"rotationOrigin": [ 0.0, 18.0, 3.0 ],
															"faces": {
																"north": { "texture": "#base", "uv": [ 10.25, 1.25, 12.25, 5.75 ], "autoUv": false },
																"east": { "texture": "#base", "uv": [ 12.5, 0.5, 14.0, 12.5 ] },
																"south": { "texture": "#base", "uv": [ 12.5, 0.75, 15.0, 5.75 ], "autoUv": false },
																"west": { "texture": "#base", "uv": [ 10.75, 0.25, 12.25, 12.25 ] },
																"up": { "texture": "#base", "uv": [ 9.0, 0.75, 15.0, 2.25 ] },
																"down": { "texture": "#base", "uv": [ 9.5, 0.0, 15.5, 1.5 ] }
															}
														}
													]
												},
												{
													"name": "Cube10",
													"from": [ 6.0, -10.0, 4.3 ],
													"to": [ 14.0, 2.0, 5.86 ],
													"rotationOrigin": [ 8.0, 0.0, 4.0 ],
													"rotationZ": 45.0,
													"faces": {
														"north": { "texture": "#base", "uv": [ 10.75, 0.75, 13.25, 6.75 ], "autoUv": false },
														"east": { "texture": "#base", "uv": [ 14.0, 0.5, 15.5, 12.5 ] },
														"south": { "texture": "#base", "uv": [ 10.0, 0.5, 12.5, 5.5 ], "autoUv": false },
														"west": { "texture": "#base", "uv": [ 14.25, 0.25, 15.75, 12.25 ] },
														"up": { "texture": "#base", "uv": [ 6.75, 0.5, 14.75, 2.0 ] },
														"down": { "texture": "#base", "uv": [ 7.5, 0.5, 15.5, 2.0 ] }
													}
												}
											]
										},
										{
											"name": "DorsalFin2",
											"from": [ -4.0, 3.0, 6.0 ],
											"to": [ 4.0, 15.0, 8.0 ],
											"rotationOrigin": [ 4.0, 4.0, 7.0 ],
											"rotationZ": -45.0,
											"faces": {
												"north": { "texture": "#base", "uv": [ 9.25, 1.5, 13.25, 8.0 ], "autoUv": false },
												"east": { "texture": "#base", "uv": [ 13.25, 1.25, 15.25, 13.25 ] },
												"south": { "texture": "#base", "uv": [ 7.25, 0.5, 11.25, 7.0 ], "autoUv": false },
												"west": { "texture": "#base", "uv": [ 12.25, 2.0, 14.25, 14.0 ] },
												"up": { "texture": "#base", "uv": [ 7.25, 1.0, 15.25, 3.0 ] },
												"down": { "texture": "#base", "uv": [ 7.5, 1.0, 15.5, 3.0 ] }
											}
										},
										{
											"name": "PelvicFin",
											"from": [ -2.0, -7.0, 6.0 ],
											"to": [ 6.0, 5.0, 8.0 ],
											"rotationOrigin": [ 2.0, 4.0, 7.0 ],
											"rotationZ": 45.0,
											"faces": {
												"north": { "texture": "#base", "uv": [ 10.0, 4.75, 15.0, 10.75 ], "autoUv": false },
												"east": { "texture": "#base", "uv": [ 13.0, 1.0, 15.0, 13.0 ] },
												"south": { "texture": "#base", "uv": [ 8.5, 1.5, 13.0, 7.0 ], "autoUv": false },
												"west": { "texture": "#base", "uv": [ 13.75, 1.0, 15.75, 13.0 ] },
												"up": { "texture": "#base", "uv": [ 7.5, 0.5, 15.5, 2.5 ] },
												"down": { "texture": "#base", "uv": [ 7.0, 1.5, 15.0, 3.5 ] }
											}
										}
									]
								},
								{
									"name": "LPelvic",
									"from": [ 14.0, 2.0, 18.0 ],
									"to": [ 22.0, 4.0, 28.0 ],
									"rotationOrigin": [ 18.0, 4.0, 18.0 ],
									"rotationX": 35.0,
									"faces": {
										"north": { "texture": "#base", "uv": [ 7.5, 1.0, 15.5, 3.0 ] },
										"east": { "texture": "#base", "uv": [ 5.0, 1.25, 15.0, 3.25 ] },
										"south": { "texture": "#base", "uv": [ 6.5, 0.75, 14.5, 2.75 ] },
										"west": { "texture": "#base", "uv": [ 5.25, 0.5, 15.25, 2.5 ] },
										"up": { "texture": "#base", "uv": [ 10.0, 4.25, 15.0, 10.75 ], "autoUv": false },
										"down": { "texture": "#base", "uv": [ 11.25, 13.75, 15.5, 15.75 ], "autoUv": false }
									}
								},
								{
									"name": "RPelvic",
									"from": [ 14.0, 2.0, -10.0 ],
									"to": [ 22.0, 4.0, 0.0 ],
									"rotationOrigin": [ 18.0, 4.0, 0.0 ],
									"rotationX": -35.0,
									"faces": {
										"north": { "texture": "#base", "uv": [ 6.5, 1.0, 14.5, 3.0 ] },
										"east": { "texture": "#base", "uv": [ 5.25, 0.5, 15.25, 2.5 ] },
										"south": { "texture": "#base", "uv": [ 7.0, 0.75, 15.0, 2.75 ] },
										"west": { "texture": "#base", "uv": [ 5.5, 0.5, 15.5, 2.5 ] },
										"up": { "texture": "#base", "uv": [ 11.25, 4.0, 15.25, 9.0 ], "autoUv": false },
										"down": { "texture": "#base", "uv": [ 12.0, 13.75, 14.75, 16.0 ], "autoUv": false }
									}
								}
							]
						},
						{
							"name": "Head",
							"from": [ -12.0, 3.0, 0.2 ],
							"to": [ 4.0, 17.0, 22.2 ],
							"rotationOrigin": [ 0.0, 5.0, 12.0 ],
							"faces": {
								"north": { "texture": "#base", "uv": [ 8.0, 4.75, 13.0, 12.25 ], "autoUv": false },
								"east": { "texture": "#base", "uv": [ 5.5, 0.75, 14.5, 6.75 ], "autoUv": false },
								"south": { "texture": "#base", "uv": [ 9.5, 4.0, 15.5, 12.0 ], "autoUv": false },
								"west": { "texture": "#base", "uv": [ 6.0, 1.75, 14.5, 9.25 ], "autoUv": false },
								"up": { "texture": "#base", "uv": [ 7.0, 0.5, 14.0, 6.5 ], "autoUv": false },
								"down": { "texture": "#base", "uv": [ 11.5, 13.75, 14.5, 15.75 ], "autoUv": false }
							},
							"children": [
								{
									"name": "BotMouth",
									"from": [ -4.6, 1.0, 0.0 ],
									"to": [ 10.6, 5.0, 15.2 ],
									"rotationOrigin": [ 6.0, 0.0, 12.0 ],
									"rotationX": -8.0,
									"rotationY": 45.0,
									"rotationZ": 10.0,
									"faces": {
										"north": { "texture": "#base", "uv": [ 8.5, 4.0, 15.5, 8.0 ], "autoUv": false },
										"east": { "texture": "#base", "uv": [ 9.0, 3.25, 16.0, 7.25 ], "autoUv": false },
										"south": { "texture": "#base", "uv": [ 8.5, 3.75, 12.0, 7.25 ], "autoUv": false },
										"west": { "texture": "#base", "uv": [ 9.5, 4.0, 15.5, 9.5 ], "autoUv": false },
										"up": { "texture": "#base", "uv": [ 1.0, 4.0, 4.5, 10.25 ], "autoUv": false },
										"down": { "texture": "#base", "uv": [ 8.25, 12.75, 13.5, 16.0 ], "autoUv": false }
									},
									"children": [
										{
											"name": "Cube73",
											"from": [ 1.0, 4.0, 1.0 ],
											"to": [ 2.0, 4.5, 2.0 ],
											"rotationOrigin": [ 1.0, 4.0, 1.0 ],
											"faces": {
												"north": { "texture": "#base", "uv": [ 1.0, 4.0, 1.5, 4.25 ], "autoUv": false },
												"east": { "texture": "#base", "uv": [ 1.0, 4.0, 1.5, 4.25 ], "autoUv": false },
												"south": { "texture": "#base", "uv": [ 1.0, 4.0, 1.5, 4.25 ], "autoUv": false },
												"west": { "texture": "#base", "uv": [ 1.0, 4.0, 1.5, 4.25 ], "autoUv": false },
												"up": { "texture": "#base", "uv": [ 1.0, 4.0, 1.5, 4.25 ], "autoUv": false },
												"down": { "texture": "#base", "uv": [ 1.0, 4.0, 1.5, 4.25 ], "autoUv": false }
											},
											"children": [
												{
													"name": "Cube74",
													"from": [ 0.0, 0.5, 0.0 ],
													"to": [ 0.5, 1.0, 0.5 ],
													"rotationOrigin": [ 0.0, 0.5, 0.0 ],
													"faces": {
														"north": { "texture": "#base", "uv": [ 1.0, 4.0, 1.5, 4.25 ], "autoUv": false },
														"east": { "texture": "#base", "uv": [ 1.0, 4.0, 1.5, 4.25 ], "autoUv": false },
														"south": { "texture": "#base", "uv": [ 1.0, 4.0, 1.5, 4.25 ], "autoUv": false },
														"west": { "texture": "#base", "uv": [ 1.0, 4.0, 1.5, 4.25 ], "autoUv": false },
														"up": { "texture": "#base", "uv": [ 1.0, 4.0, 1.5, 4.25 ], "autoUv": false },
														"down": { "texture": "#base", "uv": [ 1.0, 4.0, 1.5, 4.25 ], "autoUv": false }
													}
												}
											]
										},
										{
											"name": "Cube75",
											"from": [ 1.0, 4.0, 3.0 ],
											"to": [ 2.0, 4.5, 4.0 ],
											"rotationOrigin": [ 1.0, 4.0, 3.0 ],
											"faces": {
												"north": { "texture": "#base", "uv": [ 1.0, 4.0, 1.5, 4.25 ], "autoUv": false },
												"east": { "texture": "#base", "uv": [ 1.0, 4.0, 1.5, 4.25 ], "autoUv": false },
												"south": { "texture": "#base", "uv": [ 1.0, 4.0, 1.5, 4.25 ], "autoUv": false },
												"west": { "texture": "#base", "uv": [ 1.0, 4.0, 1.5, 4.25 ], "autoUv": false },
												"up": { "texture": "#base", "uv": [ 1.0, 4.0, 1.5, 4.25 ], "autoUv": false },
												"down": { "texture": "#base", "uv": [ 1.0, 4.0, 1.5, 4.25 ], "autoUv": false }
											},
											"children": [
												{
													"name": "Cube76",
													"from": [ 0.0, 0.5, 0.0 ],
													"to": [ 0.5, 1.0, 0.5 ],
													"rotationOrigin": [ 0.0, 0.5, 0.0 ],
													"faces": {
														"north": { "texture": "#base", "uv": [ 1.0, 4.0, 1.5, 4.25 ], "autoUv": false },
														"east": { "texture": "#base", "uv": [ 1.0, 4.0, 1.5, 4.25 ], "autoUv": false },
														"south": { "texture": "#base", "uv": [ 1.0, 4.0, 1.5, 4.25 ], "autoUv": false },
														"west": { "texture": "#base", "uv": [ 1.0, 4.0, 1.5, 4.25 ], "autoUv": false },
														"up": { "texture": "#base", "uv": [ 1.0, 4.0, 1.5, 4.25 ], "autoUv": false },
														"down": { "texture": "#base", "uv": [ 1.0, 4.0, 1.5, 4.25 ], "autoUv": false }
													}
												},
												{
													"name": "Cube93",
													"from": [ 0.0, 0.0, 2.0 ],
													"to": [ 1.0, 0.5, 3.0 ],
													"rotationOrigin": [ 0.0, 0.0, 2.0 ],
													"faces": {
														"north": { "texture": "#base", "uv": [ 1.0, 4.0, 1.5, 4.25 ], "autoUv": false },
														"east": { "texture": "#base", "uv": [ 1.0, 4.0, 1.5, 4.25 ], "autoUv": false },
														"south": { "texture": "#base", "uv": [ 1.0, 4.0, 1.5, 4.25 ], "autoUv": false },
														"west": { "texture": "#base", "uv": [ 1.0, 4.0, 1.5, 4.25 ], "autoUv": false },
														"up": { "texture": "#base", "uv": [ 1.0, 4.0, 1.5, 4.25 ], "autoUv": false },
														"down": { "texture": "#base", "uv": [ 1.0, 4.0, 1.5, 4.25 ], "autoUv": false }
													},
													"children": [
														{
															"name": "Cube94",
															"from": [ 0.0, 0.5, 0.0 ],
															"to": [ 0.5, 1.0, 0.5 ],
															"rotationOrigin": [ 0.0, 0.5, 0.0 ],
															"faces": {
																"north": { "texture": "#base", "uv": [ 1.0, 4.0, 1.5, 4.25 ], "autoUv": false },
																"east": { "texture": "#base", "uv": [ 1.0, 4.0, 1.5, 4.25 ], "autoUv": false },
																"south": { "texture": "#base", "uv": [ 1.0, 4.0, 1.5, 4.25 ], "autoUv": false },
																"west": { "texture": "#base", "uv": [ 1.0, 4.0, 1.5, 4.25 ], "autoUv": false },
																"up": { "texture": "#base", "uv": [ 1.0, 4.0, 1.5, 4.25 ], "autoUv": false },
																"down": { "texture": "#base", "uv": [ 1.0, 4.0, 1.5, 4.25 ], "autoUv": false }
															}
														}
													]
												},
												{
													"name": "Cube95",
													"from": [ 0.0, 0.0, 4.0 ],
													"to": [ 1.0, 0.5, 5.0 ],
													"rotationOrigin": [ 0.0, 0.0, 4.0 ],
													"faces": {
														"north": { "texture": "#base", "uv": [ 1.0, 4.0, 1.5, 4.25 ], "autoUv": false },
														"east": { "texture": "#base", "uv": [ 1.0, 4.0, 1.5, 4.25 ], "autoUv": false },
														"south": { "texture": "#base", "uv": [ 1.0, 4.0, 1.5, 4.25 ], "autoUv": false },
														"west": { "texture": "#base", "uv": [ 1.0, 4.0, 1.5, 4.25 ], "autoUv": false },
														"up": { "texture": "#base", "uv": [ 1.0, 4.0, 1.5, 4.25 ], "autoUv": false },
														"down": { "texture": "#base", "uv": [ 1.0, 4.0, 1.5, 4.25 ], "autoUv": false }
													},
													"children": [
														{
															"name": "Cube96",
															"from": [ 0.0, 0.5, 0.0 ],
															"to": [ 0.5, 1.0, 0.5 ],
															"rotationOrigin": [ 0.0, 0.5, 0.0 ],
															"faces": {
																"north": { "texture": "#base", "uv": [ 1.0, 4.0, 1.5, 4.25 ], "autoUv": false },
																"east": { "texture": "#base", "uv": [ 1.0, 4.0, 1.5, 4.25 ], "autoUv": false },
																"south": { "texture": "#base", "uv": [ 1.0, 4.0, 1.5, 4.25 ], "autoUv": false },
																"west": { "texture": "#base", "uv": [ 1.0, 4.0, 1.5, 4.25 ], "autoUv": false },
																"up": { "texture": "#base", "uv": [ 1.0, 4.0, 1.5, 4.25 ], "autoUv": false },
																"down": { "texture": "#base", "uv": [ 1.0, 4.0, 1.5, 4.25 ], "autoUv": false }
															}
														},
														{
															"name": "Cube97",
															"from": [ 0.0, 0.0, 2.0 ],
															"to": [ 1.0, 0.5, 3.0 ],
															"rotationOrigin": [ 0.0, 0.0, 2.0 ],
															"faces": {
																"north": { "texture": "#base", "uv": [ 1.0, 4.0, 1.5, 4.25 ], "autoUv": false },
																"east": { "texture": "#base", "uv": [ 1.0, 4.0, 1.5, 4.25 ], "autoUv": false },
																"south": { "texture": "#base", "uv": [ 1.0, 4.0, 1.5, 4.25 ], "autoUv": false },
																"west": { "texture": "#base", "uv": [ 1.0, 4.0, 1.5, 4.25 ], "autoUv": false },
																"up": { "texture": "#base", "uv": [ 1.0, 4.0, 1.5, 4.25 ], "autoUv": false },
																"down": { "texture": "#base", "uv": [ 1.0, 4.0, 1.5, 4.25 ], "autoUv": false }
															},
															"children": [
																{
																	"name": "Cube98",
																	"from": [ 0.0, 0.5, 0.0 ],
																	"to": [ 0.5, 1.0, 0.5 ],
																	"rotationOrigin": [ 0.0, 0.5, 0.0 ],
																	"faces": {
																		"north": { "texture": "#base", "uv": [ 1.0, 4.0, 1.5, 4.25 ], "autoUv": false },
																		"east": { "texture": "#base", "uv": [ 1.0, 4.0, 1.5, 4.25 ], "autoUv": false },
																		"south": { "texture": "#base", "uv": [ 1.0, 4.0, 1.5, 4.25 ], "autoUv": false },
																		"west": { "texture": "#base", "uv": [ 1.0, 4.0, 1.5, 4.25 ], "autoUv": false },
																		"up": { "texture": "#base", "uv": [ 1.0, 4.0, 1.5, 4.25 ], "autoUv": false },
																		"down": { "texture": "#base", "uv": [ 1.0, 4.0, 1.5, 4.25 ], "autoUv": false }
																	}
																}
															]
														}
													]
												}
											]
										},
										{
											"name": "Cube77",
											"from": [ 3.0, 4.0, 1.0 ],
											"to": [ 4.0, 4.5, 2.0 ],
											"rotationOrigin": [ 3.0, 4.0, 1.0 ],
											"faces": {
												"north": { "texture": "#base", "uv": [ 1.0, 4.0, 1.5, 4.25 ], "autoUv": false },
												"east": { "texture": "#base", "uv": [ 1.0, 4.0, 1.5, 4.25 ], "autoUv": false },
												"south": { "texture": "#base", "uv": [ 1.0, 4.0, 1.5, 4.25 ], "autoUv": false },
												"west": { "texture": "#base", "uv": [ 1.0, 4.0, 1.5, 4.25 ], "autoUv": false },
												"up": { "texture": "#base", "uv": [ 1.0, 4.0, 1.5, 4.25 ], "autoUv": false },
												"down": { "texture": "#base", "uv": [ 1.0, 4.0, 1.5, 4.25 ], "autoUv": false }
											},
											"children": [
												{
													"name": "Cube78",
													"from": [ 0.0, 0.5, 0.0 ],
													"to": [ 0.5, 1.0, 0.5 ],
													"rotationOrigin": [ 0.0, 0.5, 0.0 ],
													"faces": {
														"north": { "texture": "#base", "uv": [ 1.0, 4.0, 1.5, 4.25 ], "autoUv": false },
														"east": { "texture": "#base", "uv": [ 1.0, 4.0, 1.5, 4.25 ], "autoUv": false },
														"south": { "texture": "#base", "uv": [ 1.0, 4.0, 1.5, 4.25 ], "autoUv": false },
														"west": { "texture": "#base", "uv": [ 1.0, 4.0, 1.5, 4.25 ], "autoUv": false },
														"up": { "texture": "#base", "uv": [ 1.0, 4.0, 1.5, 4.25 ], "autoUv": false },
														"down": { "texture": "#base", "uv": [ 1.0, 4.0, 1.5, 4.25 ], "autoUv": false }
													}
												},
												{
													"name": "Cube79",
													"from": [ 2.0, 0.0, 0.0 ],
													"to": [ 3.0, 0.5, 1.0 ],
													"rotationOrigin": [ 2.0, 0.0, 0.0 ],
													"faces": {
														"north": { "texture": "#base", "uv": [ 1.0, 4.0, 1.5, 4.25 ], "autoUv": false },
														"east": { "texture": "#base", "uv": [ 1.0, 4.0, 1.5, 4.25 ], "autoUv": false },
														"south": { "texture": "#base", "uv": [ 1.0, 4.0, 1.5, 4.25 ], "autoUv": false },
														"west": { "texture": "#base", "uv": [ 1.0, 4.0, 1.5, 4.25 ], "autoUv": false },
														"up": { "texture": "#base", "uv": [ 1.0, 4.0, 1.5, 4.25 ], "autoUv": false },
														"down": { "texture": "#base", "uv": [ 1.0, 4.0, 1.5, 4.25 ], "autoUv": false }
													},
													"children": [
														{
															"name": "Cube80",
															"from": [ 0.0, 0.5, 0.0 ],
															"to": [ 0.5, 1.0, 0.5 ],
															"rotationOrigin": [ 0.0, 0.5, 0.0 ],
															"faces": {
																"north": { "texture": "#base", "uv": [ 1.0, 4.0, 1.5, 4.25 ], "autoUv": false },
																"east": { "texture": "#base", "uv": [ 1.0, 4.0, 1.5, 4.25 ], "autoUv": false },
																"south": { "texture": "#base", "uv": [ 1.0, 4.0, 1.5, 4.25 ], "autoUv": false },
																"west": { "texture": "#base", "uv": [ 1.0, 4.0, 1.5, 4.25 ], "autoUv": false },
																"up": { "texture": "#base", "uv": [ 1.0, 4.0, 1.5, 4.25 ], "autoUv": false },
																"down": { "texture": "#base", "uv": [ 1.0, 4.0, 1.5, 4.25 ], "autoUv": false }
															}
														}
													]
												},
												{
													"name": "Cube81",
													"from": [ 4.0, 0.0, 0.0 ],
													"to": [ 5.0, 0.5, 1.0 ],
													"rotationOrigin": [ 4.0, 0.0, 0.0 ],
													"faces": {
														"north": { "texture": "#base", "uv": [ 1.0, 4.0, 1.5, 4.25 ], "autoUv": false },
														"east": { "texture": "#base", "uv": [ 1.0, 4.0, 1.5, 4.25 ], "autoUv": false },
														"south": { "texture": "#base", "uv": [ 1.0, 4.0, 1.5, 4.25 ], "autoUv": false },
														"west": { "texture": "#base", "uv": [ 1.0, 4.0, 1.5, 4.25 ], "autoUv": false },
														"up": { "texture": "#base", "uv": [ 1.0, 4.0, 1.5, 4.25 ], "autoUv": false },
														"down": { "texture": "#base", "uv": [ 1.0, 4.0, 1.5, 4.25 ], "autoUv": false }
													},
													"children": [
														{
															"name": "Cube82",
															"from": [ 0.0, 0.5, 0.0 ],
															"to": [ 0.5, 1.0, 0.5 ],
															"rotationOrigin": [ 0.0, 0.5, 0.0 ],
															"faces": {
																"north": { "texture": "#base", "uv": [ 1.0, 4.0, 1.5, 4.25 ], "autoUv": false },
																"east": { "texture": "#base", "uv": [ 1.0, 4.0, 1.5, 4.25 ], "autoUv": false },
																"south": { "texture": "#base", "uv": [ 1.0, 4.0, 1.5, 4.25 ], "autoUv": false },
																"west": { "texture": "#base", "uv": [ 1.0, 4.0, 1.5, 4.25 ], "autoUv": false },
																"up": { "texture": "#base", "uv": [ 1.0, 4.0, 1.5, 4.25 ], "autoUv": false },
																"down": { "texture": "#base", "uv": [ 1.0, 4.0, 1.5, 4.25 ], "autoUv": false }
															}
														},
														{
															"name": "Cube83",
															"from": [ 2.0, 0.0, 0.0 ],
															"to": [ 3.0, 0.5, 1.0 ],
															"rotationOrigin": [ 2.0, 0.0, 0.0 ],
															"faces": {
																"north": { "texture": "#base", "uv": [ 1.0, 4.0, 1.5, 4.25 ], "autoUv": false },
																"east": { "texture": "#base", "uv": [ 1.0, 4.0, 1.5, 4.25 ], "autoUv": false },
																"south": { "texture": "#base", "uv": [ 1.0, 4.0, 1.5, 4.25 ], "autoUv": false },
																"west": { "texture": "#base", "uv": [ 1.0, 4.0, 1.5, 4.25 ], "autoUv": false },
																"up": { "texture": "#base", "uv": [ 1.0, 4.0, 1.5, 4.25 ], "autoUv": false },
																"down": { "texture": "#base", "uv": [ 1.0, 4.0, 1.5, 4.25 ], "autoUv": false }
															},
															"children": [
																{
																	"name": "Cube84",
																	"from": [ 0.0, 0.5, 0.0 ],
																	"to": [ 0.5, 1.0, 0.5 ],
																	"rotationOrigin": [ 0.0, 0.5, 0.0 ],
																	"faces": {
																		"north": { "texture": "#base", "uv": [ 1.0, 4.0, 1.5, 4.25 ], "autoUv": false },
																		"east": { "texture": "#base", "uv": [ 1.0, 4.0, 1.5, 4.25 ], "autoUv": false },
																		"south": { "texture": "#base", "uv": [ 1.0, 4.0, 1.5, 4.25 ], "autoUv": false },
																		"west": { "texture": "#base", "uv": [ 1.0, 4.0, 1.5, 4.25 ], "autoUv": false },
																		"up": { "texture": "#base", "uv": [ 1.0, 4.0, 1.5, 4.25 ], "autoUv": false },
																		"down": { "texture": "#base", "uv": [ 1.0, 4.0, 1.5, 4.25 ], "autoUv": false }
																	}
																}
															]
														}
													]
												}
											]
										},
										{
											"name": "Cube85",
											"from": [ 4.0, 4.0, 2.0 ],
											"to": [ 5.0, 4.5, 3.0 ],
											"rotationOrigin": [ 4.0, 4.0, 2.0 ],
											"faces": {
												"north": { "texture": "#base", "uv": [ 1.0, 4.0, 1.5, 4.25 ], "autoUv": false },
												"east": { "texture": "#base", "uv": [ 1.0, 4.0, 1.5, 4.25 ], "autoUv": false },
												"south": { "texture": "#base", "uv": [ 1.0, 4.0, 1.5, 4.25 ], "autoUv": false },
												"west": { "texture": "#base", "uv": [ 1.0, 4.0, 1.5, 4.25 ], "autoUv": false },
												"up": { "texture": "#base", "uv": [ 1.0, 4.0, 1.5, 4.25 ], "autoUv": false },
												"down": { "texture": "#base", "uv": [ 1.0, 4.0, 1.5, 4.25 ], "autoUv": false }
											},
											"children": [
												{
													"name": "Cube86",
													"from": [ 0.0, 0.5, 0.0 ],
													"to": [ 0.5, 1.0, 0.5 ],
													"rotationOrigin": [ 0.0, 0.5, 0.0 ],
													"faces": {
														"north": { "texture": "#base", "uv": [ 1.0, 4.0, 1.5, 4.25 ], "autoUv": false },
														"east": { "texture": "#base", "uv": [ 1.0, 4.0, 1.5, 4.25 ], "autoUv": false },
														"south": { "texture": "#base", "uv": [ 1.0, 4.0, 1.5, 4.25 ], "autoUv": false },
														"west": { "texture": "#base", "uv": [ 1.0, 4.0, 1.5, 4.25 ], "autoUv": false },
														"up": { "texture": "#base", "uv": [ 1.0, 4.0, 1.5, 4.25 ], "autoUv": false },
														"down": { "texture": "#base", "uv": [ 1.0, 4.0, 1.5, 4.25 ], "autoUv": false }
													}
												},
												{
													"name": "Cube87",
													"from": [ 2.0, 0.0, 0.0 ],
													"to": [ 3.0, 0.5, 1.0 ],
													"rotationOrigin": [ 2.0, 0.0, 0.0 ],
													"faces": {
														"north": { "texture": "#base", "uv": [ 1.0, 4.0, 1.5, 4.25 ], "autoUv": false },
														"east": { "texture": "#base", "uv": [ 1.0, 4.0, 1.5, 4.25 ], "autoUv": false },
														"south": { "texture": "#base", "uv": [ 1.0, 4.0, 1.5, 4.25 ], "autoUv": false },
														"west": { "texture": "#base", "uv": [ 1.0, 4.0, 1.5, 4.25 ], "autoUv": false },
														"up": { "texture": "#base", "uv": [ 1.0, 4.0, 1.5, 4.25 ], "autoUv": false },
														"down": { "texture": "#base", "uv": [ 1.0, 4.0, 1.5, 4.25 ], "autoUv": false }
													},
													"children": [
														{
															"name": "Cube88",
															"from": [ 0.0, 0.5, 0.0 ],
															"to": [ 0.5, 1.0, 0.5 ],
															"rotationOrigin": [ 0.0, 0.5, 0.0 ],
															"faces": {
																"north": { "texture": "#base", "uv": [ 1.0, 4.0, 1.5, 4.25 ], "autoUv": false },
																"east": { "texture": "#base", "uv": [ 1.0, 4.0, 1.5, 4.25 ], "autoUv": false },
																"south": { "texture": "#base", "uv": [ 1.0, 4.0, 1.5, 4.25 ], "autoUv": false },
																"west": { "texture": "#base", "uv": [ 1.0, 4.0, 1.5, 4.25 ], "autoUv": false },
																"up": { "texture": "#base", "uv": [ 1.0, 4.0, 1.5, 4.25 ], "autoUv": false },
																"down": { "texture": "#base", "uv": [ 1.0, 4.0, 1.5, 4.25 ], "autoUv": false }
															}
														}
													]
												},
												{
													"name": "Cube89",
													"from": [ 4.0, 0.0, 0.0 ],
													"to": [ 5.0, 0.5, 1.0 ],
													"rotationOrigin": [ 4.0, 0.0, 0.0 ],
													"faces": {
														"north": { "texture": "#base", "uv": [ 1.0, 4.0, 1.5, 4.25 ], "autoUv": false },
														"east": { "texture": "#base", "uv": [ 1.0, 4.0, 1.5, 4.25 ], "autoUv": false },
														"south": { "texture": "#base", "uv": [ 1.0, 4.0, 1.5, 4.25 ], "autoUv": false },
														"west": { "texture": "#base", "uv": [ 1.0, 4.0, 1.5, 4.25 ], "autoUv": false },
														"up": { "texture": "#base", "uv": [ 1.0, 4.0, 1.5, 4.25 ], "autoUv": false },
														"down": { "texture": "#base", "uv": [ 1.0, 4.0, 1.5, 4.25 ], "autoUv": false }
													},
													"children": [
														{
															"name": "Cube90",
															"from": [ 0.0, 0.5, 0.0 ],
															"to": [ 0.5, 1.0, 0.5 ],
															"rotationOrigin": [ 0.0, 0.5, 0.0 ],
															"faces": {
																"north": { "texture": "#base", "uv": [ 1.0, 4.0, 1.5, 4.25 ], "autoUv": false },
																"east": { "texture": "#base", "uv": [ 1.0, 4.0, 1.5, 4.25 ], "autoUv": false },
																"south": { "texture": "#base", "uv": [ 1.0, 4.0, 1.5, 4.25 ], "autoUv": false },
																"west": { "texture": "#base", "uv": [ 1.0, 4.0, 1.5, 4.25 ], "autoUv": false },
																"up": { "texture": "#base", "uv": [ 1.0, 4.0, 1.5, 4.25 ], "autoUv": false },
																"down": { "texture": "#base", "uv": [ 1.0, 4.0, 1.5, 4.25 ], "autoUv": false }
															}
														},
														{
															"name": "Cube91",
															"from": [ 2.0, 0.0, 0.0 ],
															"to": [ 3.0, 0.5, 1.0 ],
															"rotationOrigin": [ 2.0, 0.0, 0.0 ],
															"faces": {
																"north": { "texture": "#base", "uv": [ 1.0, 4.0, 1.5, 4.25 ], "autoUv": false },
																"east": { "texture": "#base", "uv": [ 1.0, 4.0, 1.5, 4.25 ], "autoUv": false },
																"south": { "texture": "#base", "uv": [ 1.0, 4.0, 1.5, 4.25 ], "autoUv": false },
																"west": { "texture": "#base", "uv": [ 1.0, 4.0, 1.5, 4.25 ], "autoUv": false },
																"up": { "texture": "#base", "uv": [ 1.0, 4.0, 1.5, 4.25 ], "autoUv": false },
																"down": { "texture": "#base", "uv": [ 1.0, 4.0, 1.5, 4.25 ], "autoUv": false }
															},
															"children": [
																{
																	"name": "Cube92",
																	"from": [ 0.0, 0.5, 0.0 ],
																	"to": [ 0.5, 1.0, 0.5 ],
																	"rotationOrigin": [ 0.0, 0.5, 0.0 ],
																	"faces": {
																		"north": { "texture": "#base", "uv": [ 1.0, 4.0, 1.5, 4.25 ], "autoUv": false },
																		"east": { "texture": "#base", "uv": [ 1.0, 4.0, 1.5, 4.25 ], "autoUv": false },
																		"south": { "texture": "#base", "uv": [ 1.0, 4.0, 1.5, 4.25 ], "autoUv": false },
																		"west": { "texture": "#base", "uv": [ 1.0, 4.0, 1.5, 4.25 ], "autoUv": false },
																		"up": { "texture": "#base", "uv": [ 1.0, 4.0, 1.5, 4.25 ], "autoUv": false },
																		"down": { "texture": "#base", "uv": [ 1.0, 4.0, 1.5, 4.25 ], "autoUv": false }
																	}
																}
															]
														}
													]
												}
											]
										},
										{
											"name": "Cube99",
											"from": [ 2.0, 4.0, 4.0 ],
											"to": [ 3.0, 4.5, 5.0 ],
											"rotationOrigin": [ 2.0, 4.0, 4.0 ],
											"faces": {
												"north": { "texture": "#base", "uv": [ 1.0, 4.0, 1.5, 4.25 ], "autoUv": false },
												"east": { "texture": "#base", "uv": [ 1.0, 4.0, 1.5, 4.25 ], "autoUv": false },
												"south": { "texture": "#base", "uv": [ 1.0, 4.0, 1.5, 4.25 ], "autoUv": false },
												"west": { "texture": "#base", "uv": [ 1.0, 4.0, 1.5, 4.25 ], "autoUv": false },
												"up": { "texture": "#base", "uv": [ 1.0, 4.0, 1.5, 4.25 ], "autoUv": false },
												"down": { "texture": "#base", "uv": [ 1.0, 4.0, 1.5, 4.25 ], "autoUv": false }
											},
											"children": [
												{
													"name": "Cube100",
													"from": [ 0.0, 0.5, 0.0 ],
													"to": [ 0.5, 1.0, 0.5 ],
													"rotationOrigin": [ 0.0, 0.5, 0.0 ],
													"faces": {
														"north": { "texture": "#base", "uv": [ 1.0, 4.0, 1.5, 4.25 ], "autoUv": false },
														"east": { "texture": "#base", "uv": [ 1.0, 4.0, 1.5, 4.25 ], "autoUv": false },
														"south": { "texture": "#base", "uv": [ 1.0, 4.0, 1.5, 4.25 ], "autoUv": false },
														"west": { "texture": "#base", "uv": [ 1.0, 4.0, 1.5, 4.25 ], "autoUv": false },
														"up": { "texture": "#base", "uv": [ 1.0, 4.0, 1.5, 4.25 ], "autoUv": false },
														"down": { "texture": "#base", "uv": [ 1.0, 4.0, 1.5, 4.25 ], "autoUv": false }
													}
												},
												{
													"name": "Cube101",
													"from": [ 0.0, 0.0, 2.0 ],
													"to": [ 1.0, 0.5, 3.0 ],
													"rotationOrigin": [ 0.0, 0.0, 2.0 ],
													"faces": {
														"north": { "texture": "#base", "uv": [ 1.0, 4.0, 1.5, 4.25 ], "autoUv": false },
														"east": { "texture": "#base", "uv": [ 1.0, 4.0, 1.5, 4.25 ], "autoUv": false },
														"south": { "texture": "#base", "uv": [ 1.0, 4.0, 1.5, 4.25 ], "autoUv": false },
														"west": { "texture": "#base", "uv": [ 1.0, 4.0, 1.5, 4.25 ], "autoUv": false },
														"up": { "texture": "#base", "uv": [ 1.0, 4.0, 1.5, 4.25 ], "autoUv": false },
														"down": { "texture": "#base", "uv": [ 1.0, 4.0, 1.5, 4.25 ], "autoUv": false }
													},
													"children": [
														{
															"name": "Cube102",
															"from": [ 0.0, 0.5, 0.0 ],
															"to": [ 0.5, 1.0, 0.5 ],
															"rotationOrigin": [ 0.0, 0.5, 0.0 ],
															"faces": {
																"north": { "texture": "#base", "uv": [ 1.0, 4.0, 1.5, 4.25 ], "autoUv": false },
																"east": { "texture": "#base", "uv": [ 1.0, 4.0, 1.5, 4.25 ], "autoUv": false },
																"south": { "texture": "#base", "uv": [ 1.0, 4.0, 1.5, 4.25 ], "autoUv": false },
																"west": { "texture": "#base", "uv": [ 1.0, 4.0, 1.5, 4.25 ], "autoUv": false },
																"up": { "texture": "#base", "uv": [ 1.0, 4.0, 1.5, 4.25 ], "autoUv": false },
																"down": { "texture": "#base", "uv": [ 1.0, 4.0, 1.5, 4.25 ], "autoUv": false }
															}
														}
													]
												},
												{
													"name": "Cube103",
													"from": [ 0.0, 0.0, 4.0 ],
													"to": [ 1.0, 0.5, 5.0 ],
													"rotationOrigin": [ 0.0, 0.0, 4.0 ],
													"faces": {
														"north": { "texture": "#base", "uv": [ 1.0, 4.0, 1.5, 4.25 ], "autoUv": false },
														"east": { "texture": "#base", "uv": [ 1.0, 4.0, 1.5, 4.25 ], "autoUv": false },
														"south": { "texture": "#base", "uv": [ 1.0, 4.0, 1.5, 4.25 ], "autoUv": false },
														"west": { "texture": "#base", "uv": [ 1.0, 4.0, 1.5, 4.25 ], "autoUv": false },
														"up": { "texture": "#base", "uv": [ 1.0, 4.0, 1.5, 4.25 ], "autoUv": false },
														"down": { "texture": "#base", "uv": [ 1.0, 4.0, 1.5, 4.25 ], "autoUv": false }
													},
													"children": [
														{
															"name": "Cube104",
															"from": [ 0.0, 0.5, 0.0 ],
															"to": [ 0.5, 1.0, 0.5 ],
															"rotationOrigin": [ 0.0, 0.5, 0.0 ],
															"faces": {
																"north": { "texture": "#base", "uv": [ 1.0, 4.0, 1.5, 4.25 ], "autoUv": false },
																"east": { "texture": "#base", "uv": [ 1.0, 4.0, 1.5, 4.25 ], "autoUv": false },
																"south": { "texture": "#base", "uv": [ 1.0, 4.0, 1.5, 4.25 ], "autoUv": false },
																"west": { "texture": "#base", "uv": [ 1.0, 4.0, 1.5, 4.25 ], "autoUv": false },
																"up": { "texture": "#base", "uv": [ 1.0, 4.0, 1.5, 4.25 ], "autoUv": false },
																"down": { "texture": "#base", "uv": [ 1.0, 4.0, 1.5, 4.25 ], "autoUv": false }
															}
														},
														{
															"name": "Cube105",
															"from": [ 0.0, 0.0, 2.0 ],
															"to": [ 1.0, 0.5, 3.0 ],
															"rotationOrigin": [ 0.0, 0.0, 2.0 ],
															"faces": {
																"north": { "texture": "#base", "uv": [ 1.0, 4.0, 1.5, 4.25 ], "autoUv": false },
																"east": { "texture": "#base", "uv": [ 1.0, 4.0, 1.5, 4.25 ], "autoUv": false },
																"south": { "texture": "#base", "uv": [ 1.0, 4.0, 1.5, 4.25 ], "autoUv": false },
																"west": { "texture": "#base", "uv": [ 1.0, 4.0, 1.5, 4.25 ], "autoUv": false },
																"up": { "texture": "#base", "uv": [ 1.0, 4.0, 1.5, 4.25 ], "autoUv": false },
																"down": { "texture": "#base", "uv": [ 1.0, 4.0, 1.5, 4.25 ], "autoUv": false }
															},
															"children": [
																{
																	"name": "Cube106",
																	"from": [ 0.0, 0.5, 0.0 ],
																	"to": [ 0.5, 1.0, 0.5 ],
																	"rotationOrigin": [ 0.0, 0.5, 0.0 ],
																	"faces": {
																		"north": { "texture": "#base", "uv": [ 1.0, 4.0, 1.5, 4.25 ], "autoUv": false },
																		"east": { "texture": "#base", "uv": [ 1.0, 4.0, 1.5, 4.25 ], "autoUv": false },
																		"south": { "texture": "#base", "uv": [ 1.0, 4.0, 1.5, 4.25 ], "autoUv": false },
																		"west": { "texture": "#base", "uv": [ 1.0, 4.0, 1.5, 4.25 ], "autoUv": false },
																		"up": { "texture": "#base", "uv": [ 1.0, 4.0, 1.5, 4.25 ], "autoUv": false },
																		"down": { "texture": "#base", "uv": [ 1.0, 4.0, 1.5, 4.25 ], "autoUv": false }
																	}
																}
															]
														}
													]
												}
											]
										}
									]
								},
								{
									"name": "TopMouth",
									"from": [ -5.2, 4.2, -0.6 ],
									"to": [ 10.0, 14.22, 14.6 ],
									"rotationOrigin": [ 6.0, 4.0, 12.0 ],
									"rotationY": 45.0,
									"faces": {
										"north": { "texture": "#base", "uv": [ 10.25, 7.25, 15.75, 10.25 ], "autoUv": false },
										"east": { "texture": "#base", "uv": [ 7.5, 4.75, 13.0, 9.25 ], "autoUv": false },
										"south": { "texture": "#base", "uv": [ 8.75, 4.0, 13.75, 10.0 ], "autoUv": false },
										"west": { "texture": "#base", "uv": [ 9.5, 5.0, 15.5, 9.0 ], "autoUv": false },
										"up": { "texture": "#base", "uv": [ 11.0, 0.75, 15.0, 3.75 ], "autoUv": false },
										"down": { "texture": "#base", "uv": [ 1.0, 7.75, 4.5, 11.0 ], "autoUv": false }
									},
									"children": [
										{
											"name": "Cube1",
											"from": [ -4.0, 0.2, -4.0 ],
											"to": [ 12.0, 8.2, 12.0 ],
											"rotationOrigin": [ -4.0, 0.0, -4.0 ],
											"faces": {
												"north": { "texture": "#base", "uv": [ 9.0, 4.75, 14.25, 8.25 ], "autoUv": false },
												"east": { "texture": "#base", "uv": [ 9.5, 4.0, 14.5, 8.5 ], "autoUv": false },
												"south": { "texture": "#base", "uv": [ 9.5, 4.25, 15.5, 8.75 ], "autoUv": false },
												"west": { "texture": "#base", "uv": [ 7.5, 5.5, 14.5, 11.0 ], "autoUv": false },
												"up": { "texture": "#base", "uv": [ 11.0, 0.75, 14.75, 4.5 ], "autoUv": false },
												"down": { "texture": "#base", "uv": [ 1.0, 4.0, 4.25, 8.5 ], "rotation": 90, "autoUv": false }
											}
										},
										{
											"name": "Cube23",
											"from": [ -8.0, 1.8, -8.0 ],
											"to": [ 6.0, 7.8, 6.0 ],
											"rotationOrigin": [ -8.0, 2.0, -8.0 ],
											"faces": {
												"north": { "texture": "#base", "uv": [ 7.0, 4.0, 15.5, 10.0 ], "autoUv": false },
												"east": { "texture": "#base", "uv": [ 9.5, 4.0, 14.5, 8.5 ], "autoUv": false },
												"south": { "texture": "#base", "uv": [ 9.5, 4.25, 15.5, 8.75 ], "autoUv": false },
												"west": { "texture": "#base", "uv": [ 7.5, 5.5, 14.5, 11.0 ], "autoUv": false },
												"up": { "texture": "#base", "uv": [ 8.75, 1.25, 15.25, 6.75 ], "autoUv": false },
												"down": { "texture": "#base", "uv": [ 8.0, 5.75, 15.0, 10.75 ], "autoUv": false }
											}
										},
										{
											"name": "Cube29",
											"from": [ -3.4421, -0.2, 2.5005 ],
											"to": [ -2.4421, 0.3, 3.5005 ],
											"rotationOrigin": [ -2.9421, -0.2, 2.7005 ],
											"rotationY": -45.0,
											"faces": {
												"north": { "texture": "#base", "uv": [ 1.0, 4.0, 1.5, 4.25 ], "autoUv": false },
												"east": { "texture": "#base", "uv": [ 1.0, 4.0, 1.5, 4.25 ], "autoUv": false },
												"south": { "texture": "#base", "uv": [ 1.0, 4.0, 1.5, 4.25 ], "autoUv": false },
												"west": { "texture": "#base", "uv": [ 1.0, 4.0, 1.5, 4.25 ], "autoUv": false },
												"up": { "texture": "#base", "uv": [ 1.0, 4.0, 1.5, 4.25 ], "autoUv": false },
												"down": { "texture": "#base", "uv": [ 1.0, 4.0, 1.5, 4.25 ], "autoUv": false }
											},
											"children": [
												{
													"name": "Cube30",
													"from": [ 0.0, -0.5, 0.25 ],
													"to": [ 0.5, 0.0, 0.75 ],
													"rotationOrigin": [ 0.6, 0.0, 0.5 ],
													"faces": {
														"north": { "texture": "#base", "uv": [ 1.0, 4.0, 1.5, 4.25 ], "autoUv": false },
														"east": { "texture": "#base", "uv": [ 1.0, 4.0, 1.5, 4.25 ], "autoUv": false },
														"south": { "texture": "#base", "uv": [ 1.0, 4.0, 1.5, 4.25 ], "autoUv": false },
														"west": { "texture": "#base", "uv": [ 1.0, 4.0, 1.5, 4.25 ], "autoUv": false },
														"up": { "texture": "#base", "uv": [ 1.0, 4.0, 1.5, 4.25 ], "autoUv": false },
														"down": { "texture": "#base", "uv": [ 1.0, 4.0, 1.5, 4.25 ], "autoUv": false }
													}
												},
												{
													"name": "Cube31",
													"from": [ 1.5, 0.0, 1.5 ],
													"to": [ 2.5, 0.5, 2.5 ],
													"rotationOrigin": [ 1.5, 0.0, 2.0 ],
													"faces": {
														"north": { "texture": "#base", "uv": [ 1.0, 4.0, 1.5, 4.25 ], "autoUv": false },
														"east": { "texture": "#base", "uv": [ 1.0, 4.0, 1.5, 4.25 ], "autoUv": false },
														"south": { "texture": "#base", "uv": [ 1.0, 4.0, 1.5, 4.25 ], "autoUv": false },
														"west": { "texture": "#base", "uv": [ 1.0, 4.0, 1.5, 4.25 ], "autoUv": false },
														"up": { "texture": "#base", "uv": [ 1.0, 4.0, 1.5, 4.25 ], "autoUv": false },
														"down": { "texture": "#base", "uv": [ 1.0, 4.0, 1.5, 4.25 ], "autoUv": false }
													},
													"children": [
														{
															"name": "Cube32",
															"from": [ 0.0, -0.5, 0.25 ],
															"to": [ 0.5, 0.0, 0.75 ],
															"rotationOrigin": [ 0.6, 0.0, 0.5 ],
															"faces": {
																"north": { "texture": "#base", "uv": [ 1.0, 4.0, 1.5, 4.25 ], "autoUv": false },
																"east": { "texture": "#base", "uv": [ 1.0, 4.0, 1.5, 4.25 ], "autoUv": false },
																"south": { "texture": "#base", "uv": [ 1.0, 4.0, 1.5, 4.25 ], "autoUv": false },
																"west": { "texture": "#base", "uv": [ 1.0, 4.0, 1.5, 4.25 ], "autoUv": false },
																"up": { "texture": "#base", "uv": [ 1.0, 4.0, 1.5, 4.25 ], "autoUv": false },
																"down": { "texture": "#base", "uv": [ 1.0, 4.0, 1.5, 4.25 ], "autoUv": false }
															}
														}
													]
												},
												{
													"name": "Cube33",
													"from": [ 3.0, 0.0, 3.0 ],
													"to": [ 4.0, 0.5, 4.0 ],
													"rotationOrigin": [ 3.5, 0.0, 4.0 ],
													"faces": {
														"north": { "texture": "#base", "uv": [ 1.0, 4.0, 1.5, 4.25 ], "autoUv": false },
														"east": { "texture": "#base", "uv": [ 1.0, 4.0, 1.5, 4.25 ], "autoUv": false },
														"south": { "texture": "#base", "uv": [ 1.0, 4.0, 1.5, 4.25 ], "autoUv": false },
														"west": { "texture": "#base", "uv": [ 1.0, 4.0, 1.5, 4.25 ], "autoUv": false },
														"up": { "texture": "#base", "uv": [ 1.0, 4.0, 1.5, 4.25 ], "autoUv": false },
														"down": { "texture": "#base", "uv": [ 1.0, 4.0, 1.5, 4.25 ], "autoUv": false }
													},
													"children": [
														{
															"name": "Cube34",
															"from": [ 0.0, -0.5, 0.25 ],
															"to": [ 0.5, 0.0, 0.75 ],
															"rotationOrigin": [ 0.6, 0.0, 0.5 ],
															"faces": {
																"north": { "texture": "#base", "uv": [ 1.0, 4.0, 1.5, 4.25 ], "autoUv": false },
																"east": { "texture": "#base", "uv": [ 1.0, 4.0, 1.5, 4.25 ], "autoUv": false },
																"south": { "texture": "#base", "uv": [ 1.0, 4.0, 1.5, 4.25 ], "autoUv": false },
																"west": { "texture": "#base", "uv": [ 1.0, 4.0, 1.5, 4.25 ], "autoUv": false },
																"up": { "texture": "#base", "uv": [ 1.0, 4.0, 1.5, 4.25 ], "autoUv": false },
																"down": { "texture": "#base", "uv": [ 1.0, 4.0, 1.5, 4.25 ], "autoUv": false }
															}
														}
													]
												},
												{
													"name": "Cube35",
													"from": [ 5.0, 0.1, 4.0 ],
													"to": [ 6.0, 0.6, 5.0 ],
													"rotationOrigin": [ 5.5, 0.0, 5.0 ],
													"faces": {
														"north": { "texture": "#base", "uv": [ 1.0, 4.0, 1.5, 4.25 ], "autoUv": false },
														"east": { "texture": "#base", "uv": [ 1.0, 4.0, 1.5, 4.25 ], "autoUv": false },
														"south": { "texture": "#base", "uv": [ 1.0, 4.0, 1.5, 4.25 ], "autoUv": false },
														"west": { "texture": "#base", "uv": [ 1.0, 4.0, 1.5, 4.25 ], "autoUv": false },
														"up": { "texture": "#base", "uv": [ 1.0, 4.0, 1.5, 4.25 ], "autoUv": false },
														"down": { "texture": "#base", "uv": [ 1.0, 4.0, 1.5, 4.25 ], "autoUv": false }
													},
													"children": [
														{
															"name": "Cube36",
															"from": [ 0.0, -0.5, 0.25 ],
															"to": [ 0.5, 0.0, 0.75 ],
															"rotationOrigin": [ 0.6, 0.0, 0.5 ],
															"faces": {
																"north": { "texture": "#base", "uv": [ 1.0, 4.0, 1.5, 4.25 ], "autoUv": false },
																"east": { "texture": "#base", "uv": [ 1.0, 4.0, 1.5, 4.25 ], "autoUv": false },
																"south": { "texture": "#base", "uv": [ 1.0, 4.0, 1.5, 4.25 ], "autoUv": false },
																"west": { "texture": "#base", "uv": [ 1.0, 4.0, 1.5, 4.25 ], "autoUv": false },
																"up": { "texture": "#base", "uv": [ 1.0, 4.0, 1.5, 4.25 ], "autoUv": false },
																"down": { "texture": "#base", "uv": [ 1.0, 4.0, 1.5, 4.25 ], "autoUv": false }
															}
														}
													]
												},
												{
													"name": "Cube25",
													"from": [ -2.5, 0.0, -2.8 ],
													"to": [ -1.5, 0.5, -1.8 ],
													"rotationOrigin": [ -2.5, 0.0, -2.8 ],
													"faces": {
														"north": { "texture": "#base", "uv": [ 1.0, 4.0, 1.5, 4.25 ], "autoUv": false },
														"east": { "texture": "#base", "uv": [ 1.0, 4.0, 1.5, 4.25 ], "autoUv": false },
														"south": { "texture": "#base", "uv": [ 1.0, 4.0, 1.5, 4.25 ], "autoUv": false },
														"west": { "texture": "#base", "uv": [ 1.0, 4.0, 1.5, 4.25 ], "autoUv": false },
														"up": { "texture": "#base", "uv": [ 1.0, 4.0, 1.5, 4.25 ], "autoUv": false },
														"down": { "texture": "#base", "uv": [ 1.0, 4.0, 1.5, 4.25 ], "autoUv": false }
													},
													"children": [
														{
															"name": "Cube26",
															"from": [ 0.0, -0.5, 0.25 ],
															"to": [ 0.5, 0.0, 0.75 ],
															"rotationOrigin": [ 0.6, 0.0, 0.5 ],
															"faces": {
																"north": { "texture": "#base", "uv": [ 1.0, 4.0, 1.5, 4.25 ], "autoUv": false },
																"east": { "texture": "#base", "uv": [ 1.0, 4.0, 1.5, 4.25 ], "autoUv": false },
																"south": { "texture": "#base", "uv": [ 1.0, 4.0, 1.5, 4.25 ], "autoUv": false },
																"west": { "texture": "#base", "uv": [ 1.0, 4.0, 1.5, 4.25 ], "autoUv": false },
																"up": { "texture": "#base", "uv": [ 1.0, 4.0, 1.5, 4.25 ], "autoUv": false },
																"down": { "texture": "#base", "uv": [ 1.0, 4.0, 1.5, 4.25 ], "autoUv": false }
															}
														},
														{
															"name": "Cube27",
															"from": [ 1.0, 0.0, 1.5 ],
															"to": [ 2.0, 0.5, 2.5 ],
															"rotationOrigin": [ 1.0, 0.0, 1.0 ],
															"faces": {
																"north": { "texture": "#base", "uv": [ 1.0, 4.0, 1.5, 4.25 ], "autoUv": false },
																"east": { "texture": "#base", "uv": [ 1.0, 4.0, 1.5, 4.25 ], "autoUv": false },
																"south": { "texture": "#base", "uv": [ 1.0, 4.0, 1.5, 4.25 ], "autoUv": false },
																"west": { "texture": "#base", "uv": [ 1.0, 4.0, 1.5, 4.25 ], "autoUv": false },
																"up": { "texture": "#base", "uv": [ 1.0, 4.0, 1.5, 4.25 ], "autoUv": false },
																"down": { "texture": "#base", "uv": [ 1.0, 4.0, 1.5, 4.25 ], "autoUv": false }
															},
															"children": [
																{
																	"name": "Cube28",
																	"from": [ 0.0, -0.5, 0.25 ],
																	"to": [ 0.5, 0.0, 0.75 ],
																	"rotationOrigin": [ 0.6, 0.0, 0.5 ],
																	"faces": {
																		"north": { "texture": "#base", "uv": [ 1.0, 4.0, 1.5, 4.25 ], "autoUv": false },
																		"east": { "texture": "#base", "uv": [ 1.0, 4.0, 1.5, 4.25 ], "autoUv": false },
																		"south": { "texture": "#base", "uv": [ 1.0, 4.0, 1.5, 4.25 ], "autoUv": false },
																		"west": { "texture": "#base", "uv": [ 1.0, 4.0, 1.5, 4.25 ], "autoUv": false },
																		"up": { "texture": "#base", "uv": [ 1.0, 4.0, 1.5, 4.25 ], "autoUv": false },
																		"down": { "texture": "#base", "uv": [ 1.0, 4.0, 1.5, 4.25 ], "autoUv": false }
																	}
																}
															]
														}
													]
												},
												{
													"name": "Cube61",
													"from": [ 1.0, 0.0, -1.0 ],
													"to": [ 2.0, 0.5, 0.0 ],
													"rotationOrigin": [ 1.5, 0.0, -0.8 ],
													"faces": {
														"north": { "texture": "#base", "uv": [ 1.0, 4.0, 1.5, 4.25 ], "autoUv": false },
														"east": { "texture": "#base", "uv": [ 1.0, 4.0, 1.5, 4.25 ], "autoUv": false },
														"south": { "texture": "#base", "uv": [ 1.0, 4.0, 1.5, 4.25 ], "autoUv": false },
														"west": { "texture": "#base", "uv": [ 1.0, 4.0, 1.5, 4.25 ], "autoUv": false },
														"up": { "texture": "#base", "uv": [ 1.0, 4.0, 1.5, 4.25 ], "autoUv": false },
														"down": { "texture": "#base", "uv": [ 1.0, 4.0, 1.5, 4.25 ], "autoUv": false }
													},
													"children": [
														{
															"name": "Cube62",
															"from": [ 0.0, -0.5, 0.25 ],
															"to": [ 0.5, 0.0, 0.75 ],
															"rotationOrigin": [ 0.6, 0.0, 0.5 ],
															"faces": {
																"north": { "texture": "#base", "uv": [ 1.0, 4.0, 1.5, 4.25 ], "autoUv": false },
																"east": { "texture": "#base", "uv": [ 1.0, 4.0, 1.5, 4.25 ], "autoUv": false },
																"south": { "texture": "#base", "uv": [ 1.0, 4.0, 1.5, 4.25 ], "autoUv": false },
																"west": { "texture": "#base", "uv": [ 1.0, 4.0, 1.5, 4.25 ], "autoUv": false },
																"up": { "texture": "#base", "uv": [ 1.0, 4.0, 1.5, 4.25 ], "autoUv": false },
																"down": { "texture": "#base", "uv": [ 1.0, 4.0, 1.5, 4.25 ], "autoUv": false }
															}
														},
														{
															"name": "Cube63",
															"from": [ 1.5, 0.0, 1.5 ],
															"to": [ 2.5, 0.5, 2.5 ],
															"rotationOrigin": [ 1.5, 0.0, 2.0 ],
															"faces": {
																"north": { "texture": "#base", "uv": [ 1.0, 4.0, 1.5, 4.25 ], "autoUv": false },
																"east": { "texture": "#base", "uv": [ 1.0, 4.0, 1.5, 4.25 ], "autoUv": false },
																"south": { "texture": "#base", "uv": [ 1.0, 4.0, 1.5, 4.25 ], "autoUv": false },
																"west": { "texture": "#base", "uv": [ 1.0, 4.0, 1.5, 4.25 ], "autoUv": false },
																"up": { "texture": "#base", "uv": [ 1.0, 4.0, 1.5, 4.25 ], "autoUv": false },
																"down": { "texture": "#base", "uv": [ 1.0, 4.0, 1.5, 4.25 ], "autoUv": false }
															},
															"children": [
																{
																	"name": "Cube64",
																	"from": [ 0.0, -0.5, 0.25 ],
																	"to": [ 0.5, 0.0, 0.75 ],
																	"rotationOrigin": [ 0.6, 0.0, 0.5 ],
																	"faces": {
																		"north": { "texture": "#base", "uv": [ 1.0, 4.0, 1.5, 4.25 ], "autoUv": false },
																		"east": { "texture": "#base", "uv": [ 1.0, 4.0, 1.5, 4.25 ], "autoUv": false },
																		"south": { "texture": "#base", "uv": [ 1.0, 4.0, 1.5, 4.25 ], "autoUv": false },
																		"west": { "texture": "#base", "uv": [ 1.0, 4.0, 1.5, 4.25 ], "autoUv": false },
																		"up": { "texture": "#base", "uv": [ 1.0, 4.0, 1.5, 4.25 ], "autoUv": false },
																		"down": { "texture": "#base", "uv": [ 1.0, 4.0, 1.5, 4.25 ], "autoUv": false }
																	}
																}
															]
														},
														{
															"name": "Cube65",
															"from": [ 3.0, 0.0, 3.0 ],
															"to": [ 4.0, 0.5, 4.0 ],
															"rotationOrigin": [ 3.5, 0.0, 4.0 ],
															"faces": {
																"north": { "texture": "#base", "uv": [ 1.0, 4.0, 1.5, 4.25 ], "autoUv": false },
																"east": { "texture": "#base", "uv": [ 1.0, 4.0, 1.5, 4.25 ], "autoUv": false },
																"south": { "texture": "#base", "uv": [ 1.0, 4.0, 1.5, 4.25 ], "autoUv": false },
																"west": { "texture": "#base", "uv": [ 1.0, 4.0, 1.5, 4.25 ], "autoUv": false },
																"up": { "texture": "#base", "uv": [ 1.0, 4.0, 1.5, 4.25 ], "autoUv": false },
																"down": { "texture": "#base", "uv": [ 1.0, 4.0, 1.5, 4.25 ], "autoUv": false }
															},
															"children": [
																{
																	"name": "Cube66",
																	"from": [ 0.0, -0.5, 0.25 ],
																	"to": [ 0.5, 0.0, 0.75 ],
																	"rotationOrigin": [ 0.6, 0.0, 0.5 ],
																	"faces": {
																		"north": { "texture": "#base", "uv": [ 1.0, 4.0, 1.5, 4.25 ], "autoUv": false },
																		"east": { "texture": "#base", "uv": [ 1.0, 4.0, 1.5, 4.25 ], "autoUv": false },
																		"south": { "texture": "#base", "uv": [ 1.0, 4.0, 1.5, 4.25 ], "autoUv": false },
																		"west": { "texture": "#base", "uv": [ 1.0, 4.0, 1.5, 4.25 ], "autoUv": false },
																		"up": { "texture": "#base", "uv": [ 1.0, 4.0, 1.5, 4.25 ], "autoUv": false },
																		"down": { "texture": "#base", "uv": [ 1.0, 4.0, 1.5, 4.25 ], "autoUv": false }
																	}
																}
															]
														},
														{
															"name": "Cube67",
															"from": [ 5.0, 0.1, 4.0 ],
															"to": [ 6.0, 0.6, 5.0 ],
															"rotationOrigin": [ 5.5, 0.0, 5.0 ],
															"faces": {
																"north": { "texture": "#base", "uv": [ 1.0, 4.0, 1.5, 4.25 ], "autoUv": false },
																"east": { "texture": "#base", "uv": [ 1.0, 4.0, 1.5, 4.25 ], "autoUv": false },
																"south": { "texture": "#base", "uv": [ 1.0, 4.0, 1.5, 4.25 ], "autoUv": false },
																"west": { "texture": "#base", "uv": [ 1.0, 4.0, 1.5, 4.25 ], "autoUv": false },
																"up": { "texture": "#base", "uv": [ 1.0, 4.0, 1.5, 4.25 ], "autoUv": false },
																"down": { "texture": "#base", "uv": [ 1.0, 4.0, 1.5, 4.25 ], "autoUv": false }
															},
															"children": [
																{
																	"name": "Cube68",
																	"from": [ 0.0, -0.5, 0.25 ],
																	"to": [ 0.5, 0.0, 0.75 ],
																	"rotationOrigin": [ 0.6, 0.0, 0.5 ],
																	"faces": {
																		"north": { "texture": "#base", "uv": [ 1.0, 4.0, 1.5, 4.25 ], "autoUv": false },
																		"east": { "texture": "#base", "uv": [ 1.0, 4.0, 1.5, 4.25 ], "autoUv": false },
																		"south": { "texture": "#base", "uv": [ 1.0, 4.0, 1.5, 4.25 ], "autoUv": false },
																		"west": { "texture": "#base", "uv": [ 1.0, 4.0, 1.5, 4.25 ], "autoUv": false },
																		"up": { "texture": "#base", "uv": [ 1.0, 4.0, 1.5, 4.25 ], "autoUv": false },
																		"down": { "texture": "#base", "uv": [ 1.0, 4.0, 1.5, 4.25 ], "autoUv": false }
																	}
																}
															]
														},
														{
															"name": "Cube69",
															"from": [ -2.5, 0.0, -2.8 ],
															"to": [ -1.5, 0.5, -1.8 ],
															"rotationOrigin": [ -2.5, 0.0, -2.8 ],
															"faces": {
																"north": { "texture": "#base", "uv": [ 1.0, 4.0, 1.5, 4.25 ], "autoUv": false },
																"east": { "texture": "#base", "uv": [ 1.0, 4.0, 1.5, 4.25 ], "autoUv": false },
																"south": { "texture": "#base", "uv": [ 1.0, 4.0, 1.5, 4.25 ], "autoUv": false },
																"west": { "texture": "#base", "uv": [ 1.0, 4.0, 1.5, 4.25 ], "autoUv": false },
																"up": { "texture": "#base", "uv": [ 1.0, 4.0, 1.5, 4.25 ], "autoUv": false },
																"down": { "texture": "#base", "uv": [ 1.0, 4.0, 1.5, 4.25 ], "autoUv": false }
															},
															"children": [
																{
																	"name": "Cube70",
																	"from": [ 0.0, -0.5, 0.25 ],
																	"to": [ 0.5, 0.0, 0.75 ],
																	"rotationOrigin": [ 0.6, 0.0, 0.5 ],
																	"faces": {
																		"north": { "texture": "#base", "uv": [ 1.0, 4.0, 1.5, 4.25 ], "autoUv": false },
																		"east": { "texture": "#base", "uv": [ 1.0, 4.0, 1.5, 4.25 ], "autoUv": false },
																		"south": { "texture": "#base", "uv": [ 1.0, 4.0, 1.5, 4.25 ], "autoUv": false },
																		"west": { "texture": "#base", "uv": [ 1.0, 4.0, 1.5, 4.25 ], "autoUv": false },
																		"up": { "texture": "#base", "uv": [ 1.0, 4.0, 1.5, 4.25 ], "autoUv": false },
																		"down": { "texture": "#base", "uv": [ 1.0, 4.0, 1.5, 4.25 ], "autoUv": false }
																	}
																},
																{
																	"name": "Cube71",
																	"from": [ 1.0, 0.0, 1.5 ],
																	"to": [ 2.0, 0.5, 2.5 ],
																	"rotationOrigin": [ 1.0, 0.0, 1.0 ],
																	"faces": {
																		"north": { "texture": "#base", "uv": [ 1.0, 4.0, 1.5, 4.25 ], "autoUv": false },
																		"east": { "texture": "#base", "uv": [ 1.0, 4.0, 1.5, 4.25 ], "autoUv": false },
																		"south": { "texture": "#base", "uv": [ 1.0, 4.0, 1.5, 4.25 ], "autoUv": false },
																		"west": { "texture": "#base", "uv": [ 1.0, 4.0, 1.5, 4.25 ], "autoUv": false },
																		"up": { "texture": "#base", "uv": [ 1.0, 4.0, 1.5, 4.25 ], "autoUv": false },
																		"down": { "texture": "#base", "uv": [ 1.0, 4.0, 1.5, 4.25 ], "autoUv": false }
																	},
																	"children": [
																		{
																			"name": "Cube72",
																			"from": [ 0.0, -0.5, 0.25 ],
																			"to": [ 0.5, 0.0, 0.75 ],
																			"rotationOrigin": [ 0.6, 0.0, 0.5 ],
																			"faces": {
																				"north": { "texture": "#base", "uv": [ 1.0, 4.0, 1.5, 4.25 ], "autoUv": false },
																				"east": { "texture": "#base", "uv": [ 1.0, 4.0, 1.5, 4.25 ], "autoUv": false },
																				"south": { "texture": "#base", "uv": [ 1.0, 4.0, 1.5, 4.25 ], "autoUv": false },
																				"west": { "texture": "#base", "uv": [ 1.0, 4.0, 1.5, 4.25 ], "autoUv": false },
																				"up": { "texture": "#base", "uv": [ 1.0, 4.0, 1.5, 4.25 ], "autoUv": false },
																				"down": { "texture": "#base", "uv": [ 1.0, 4.0, 1.5, 4.25 ], "autoUv": false }
																			}
																		}
																	]
																}
															]
														}
													]
												}
											]
										},
										{
											"name": "Cube43",
											"from": [ 5.8917, -0.2, -3.3907 ],
											"to": [ 6.8917, 0.3, -2.3907 ],
											"rotationOrigin": [ 6.3917, -0.2, -2.3907 ],
											"rotationY": -45.0,
											"faces": {
												"north": { "texture": "#base", "uv": [ 1.0, 4.0, 1.5, 4.25 ], "autoUv": false },
												"east": { "texture": "#base", "uv": [ 1.0, 4.0, 1.5, 4.25 ], "autoUv": false },
												"south": { "texture": "#base", "uv": [ 1.0, 4.0, 1.5, 4.25 ], "autoUv": false },
												"west": { "texture": "#base", "uv": [ 1.0, 4.0, 1.5, 4.25 ], "autoUv": false },
												"up": { "texture": "#base", "uv": [ 1.0, 4.0, 1.5, 4.25 ], "autoUv": false },
												"down": { "texture": "#base", "uv": [ 1.0, 4.0, 1.5, 4.25 ], "autoUv": false }
											},
											"children": [
												{
													"name": "Cube44",
													"from": [ 0.0, -0.5, 0.25 ],
													"to": [ 0.5, 0.0, 0.75 ],
													"rotationOrigin": [ 0.6, 0.0, 0.5 ],
													"faces": {
														"north": { "texture": "#base", "uv": [ 1.0, 4.0, 1.5, 4.25 ], "autoUv": false },
														"east": { "texture": "#base", "uv": [ 1.0, 4.0, 1.5, 4.25 ], "autoUv": false },
														"south": { "texture": "#base", "uv": [ 1.0, 4.0, 1.5, 4.25 ], "autoUv": false },
														"west": { "texture": "#base", "uv": [ 1.0, 4.0, 1.5, 4.25 ], "autoUv": false },
														"up": { "texture": "#base", "uv": [ 1.0, 4.0, 1.5, 4.25 ], "autoUv": false },
														"down": { "texture": "#base", "uv": [ 1.0, 4.0, 1.5, 4.25 ], "autoUv": false }
													}
												},
												{
													"name": "Cube45",
													"from": [ -3.0, 0.0, 3.0 ],
													"to": [ -2.0, 0.5, 4.0 ],
													"rotationOrigin": [ -2.5, 0.0, 3.2 ],
													"faces": {
														"north": { "texture": "#base", "uv": [ 1.0, 4.0, 1.5, 4.25 ], "autoUv": false },
														"east": { "texture": "#base", "uv": [ 1.0, 4.0, 1.5, 4.25 ], "autoUv": false },
														"south": { "texture": "#base", "uv": [ 1.0, 4.0, 1.5, 4.25 ], "autoUv": false },
														"west": { "texture": "#base", "uv": [ 1.0, 4.0, 1.5, 4.25 ], "autoUv": false },
														"up": { "texture": "#base", "uv": [ 1.0, 4.0, 1.5, 4.25 ], "autoUv": false },
														"down": { "texture": "#base", "uv": [ 1.0, 4.0, 1.5, 4.25 ], "autoUv": false }
													},
													"children": [
														{
															"name": "Cube46",
															"from": [ 0.0, -0.5, 0.25 ],
															"to": [ 0.5, 0.0, 0.75 ],
															"rotationOrigin": [ 0.6, 0.0, 0.5 ],
															"faces": {
																"north": { "texture": "#base", "uv": [ 1.0, 4.0, 1.5, 4.25 ], "autoUv": false },
																"east": { "texture": "#base", "uv": [ 1.0, 4.0, 1.5, 4.25 ], "autoUv": false },
																"south": { "texture": "#base", "uv": [ 1.0, 4.0, 1.5, 4.25 ], "autoUv": false },
																"west": { "texture": "#base", "uv": [ 1.0, 4.0, 1.5, 4.25 ], "autoUv": false },
																"up": { "texture": "#base", "uv": [ 1.0, 4.0, 1.5, 4.25 ], "autoUv": false },
																"down": { "texture": "#base", "uv": [ 1.0, 4.0, 1.5, 4.25 ], "autoUv": false }
															}
														},
														{
															"name": "Cube47",
															"from": [ 1.5, 0.0, -1.5 ],
															"to": [ 2.5, 0.5, -0.5 ],
															"rotationOrigin": [ 1.5, 0.0, -1.0 ],
															"faces": {
																"north": { "texture": "#base", "uv": [ 1.0, 4.0, 1.5, 4.25 ], "autoUv": false },
																"east": { "texture": "#base", "uv": [ 1.0, 4.0, 1.5, 4.25 ], "autoUv": false },
																"south": { "texture": "#base", "uv": [ 1.0, 4.0, 1.5, 4.25 ], "autoUv": false },
																"west": { "texture": "#base", "uv": [ 1.0, 4.0, 1.5, 4.25 ], "autoUv": false },
																"up": { "texture": "#base", "uv": [ 1.0, 4.0, 1.5, 4.25 ], "autoUv": false },
																"down": { "texture": "#base", "uv": [ 1.0, 4.0, 1.5, 4.25 ], "autoUv": false }
															},
															"children": [
																{
																	"name": "Cube48",
																	"from": [ 0.0, -0.5, 0.25 ],
																	"to": [ 0.5, 0.0, 0.75 ],
																	"rotationOrigin": [ 0.6, 0.0, 0.5 ],
																	"faces": {
																		"north": { "texture": "#base", "uv": [ 1.0, 4.0, 1.5, 4.25 ], "autoUv": false },
																		"east": { "texture": "#base", "uv": [ 1.0, 4.0, 1.5, 4.25 ], "autoUv": false },
																		"south": { "texture": "#base", "uv": [ 1.0, 4.0, 1.5, 4.25 ], "autoUv": false },
																		"west": { "texture": "#base", "uv": [ 1.0, 4.0, 1.5, 4.25 ], "autoUv": false },
																		"up": { "texture": "#base", "uv": [ 1.0, 4.0, 1.5, 4.25 ], "autoUv": false },
																		"down": { "texture": "#base", "uv": [ 1.0, 4.0, 1.5, 4.25 ], "autoUv": false }
																	}
																}
															]
														}
													]
												},
												{
													"name": "Cube41",
													"from": [ 2.0, 0.1, -1.0 ],
													"to": [ 3.0, 0.6, 0.0 ],
													"rotationOrigin": [ 2.5, 0.0, 0.0 ],
													"faces": {
														"north": { "texture": "#base", "uv": [ 1.0, 4.0, 1.5, 4.25 ], "autoUv": false },
														"east": { "texture": "#base", "uv": [ 1.0, 4.0, 1.5, 4.25 ], "autoUv": false },
														"south": { "texture": "#base", "uv": [ 1.0, 4.0, 1.5, 4.25 ], "autoUv": false },
														"west": { "texture": "#base", "uv": [ 1.0, 4.0, 1.5, 4.25 ], "autoUv": false },
														"up": { "texture": "#base", "uv": [ 1.0, 4.0, 1.5, 4.25 ], "autoUv": false },
														"down": { "texture": "#base", "uv": [ 1.0, 4.0, 1.5, 4.25 ], "autoUv": false }
													},
													"children": [
														{
															"name": "Cube42",
															"from": [ 0.0, -0.5, 0.25 ],
															"to": [ 0.5, 0.0, 0.75 ],
															"rotationOrigin": [ 0.6, 0.0, 0.5 ],
															"faces": {
																"north": { "texture": "#base", "uv": [ 1.0, 4.0, 1.5, 4.25 ], "autoUv": false },
																"east": { "texture": "#base", "uv": [ 1.0, 4.0, 1.5, 4.25 ], "autoUv": false },
																"south": { "texture": "#base", "uv": [ 1.0, 4.0, 1.5, 4.25 ], "autoUv": false },
																"west": { "texture": "#base", "uv": [ 1.0, 4.0, 1.5, 4.25 ], "autoUv": false },
																"up": { "texture": "#base", "uv": [ 1.0, 4.0, 1.5, 4.25 ], "autoUv": false },
																"down": { "texture": "#base", "uv": [ 1.0, 4.0, 1.5, 4.25 ], "autoUv": false }
															}
														},
														{
															"name": "Cube37",
															"from": [ -7.5, -0.1, 6.2 ],
															"to": [ -6.5, 0.4, 7.2 ],
															"rotationOrigin": [ -7.5, -0.1, 6.2 ],
															"faces": {
																"north": { "texture": "#base", "uv": [ 1.0, 4.0, 1.5, 4.25 ], "autoUv": false },
																"east": { "texture": "#base", "uv": [ 1.0, 4.0, 1.5, 4.25 ], "autoUv": false },
																"south": { "texture": "#base", "uv": [ 1.0, 4.0, 1.5, 4.25 ], "autoUv": false },
																"west": { "texture": "#base", "uv": [ 1.0, 4.0, 1.5, 4.25 ], "autoUv": false },
																"up": { "texture": "#base", "uv": [ 1.0, 4.0, 1.5, 4.25 ], "autoUv": false },
																"down": { "texture": "#base", "uv": [ 1.0, 4.0, 1.5, 4.25 ], "autoUv": false }
															},
															"children": [
																{
																	"name": "Cube38",
																	"from": [ 0.0, -0.5, 0.25 ],
																	"to": [ 0.5, 0.0, 0.75 ],
																	"rotationOrigin": [ 0.6, 0.0, 0.5 ],
																	"faces": {
																		"north": { "texture": "#base", "uv": [ 1.0, 4.0, 1.5, 4.25 ], "autoUv": false },
																		"east": { "texture": "#base", "uv": [ 1.0, 4.0, 1.5, 4.25 ], "autoUv": false },
																		"south": { "texture": "#base", "uv": [ 1.0, 4.0, 1.5, 4.25 ], "autoUv": false },
																		"west": { "texture": "#base", "uv": [ 1.0, 4.0, 1.5, 4.25 ], "autoUv": false },
																		"up": { "texture": "#base", "uv": [ 1.0, 4.0, 1.5, 4.25 ], "autoUv": false },
																		"down": { "texture": "#base", "uv": [ 1.0, 4.0, 1.5, 4.25 ], "autoUv": false }
																	}
																},
																{
																	"name": "Cube39",
																	"from": [ 1.0, 0.0, -1.5 ],
																	"to": [ 2.0, 0.5, -0.5 ],
																	"rotationOrigin": [ 1.0, 0.0, -2.0 ],
																	"faces": {
																		"north": { "texture": "#base", "uv": [ 1.0, 4.0, 1.5, 4.25 ], "autoUv": false },
																		"east": { "texture": "#base", "uv": [ 1.0, 4.0, 1.5, 4.25 ], "autoUv": false },
																		"south": { "texture": "#base", "uv": [ 1.0, 4.0, 1.5, 4.25 ], "autoUv": false },
																		"west": { "texture": "#base", "uv": [ 1.0, 4.0, 1.5, 4.25 ], "autoUv": false },
																		"up": { "texture": "#base", "uv": [ 1.0, 4.0, 1.5, 4.25 ], "autoUv": false },
																		"down": { "texture": "#base", "uv": [ 1.0, 4.0, 1.5, 4.25 ], "autoUv": false }
																	},
																	"children": [
																		{
																			"name": "Cube40",
																			"from": [ 0.0, -0.5, 0.25 ],
																			"to": [ 0.5, 0.0, 0.75 ],
																			"rotationOrigin": [ 0.6, 0.0, 0.5 ],
																			"faces": {
																				"north": { "texture": "#base", "uv": [ 1.0, 4.0, 1.5, 4.25 ], "autoUv": false },
																				"east": { "texture": "#base", "uv": [ 1.0, 4.0, 1.5, 4.25 ], "autoUv": false },
																				"south": { "texture": "#base", "uv": [ 1.0, 4.0, 1.5, 4.25 ], "autoUv": false },
																				"west": { "texture": "#base", "uv": [ 1.0, 4.0, 1.5, 4.25 ], "autoUv": false },
																				"up": { "texture": "#base", "uv": [ 1.0, 4.0, 1.5, 4.25 ], "autoUv": false },
																				"down": { "texture": "#base", "uv": [ 1.0, 4.0, 1.5, 4.25 ], "autoUv": false }
																			}
																		}
																	]
																}
															]
														}
													]
												},
												{
													"name": "Cube49",
													"from": [ 1.0, 0.0, 1.0 ],
													"to": [ 2.0, 0.5, 2.0 ],
													"rotationOrigin": [ 1.5, 0.0, 2.0 ],
													"faces": {
														"north": { "texture": "#base", "uv": [ 1.0, 4.0, 1.5, 4.25 ], "autoUv": false },
														"east": { "texture": "#base", "uv": [ 1.0, 4.0, 1.5, 4.25 ], "autoUv": false },
														"south": { "texture": "#base", "uv": [ 1.0, 4.0, 1.5, 4.25 ], "autoUv": false },
														"west": { "texture": "#base", "uv": [ 1.0, 4.0, 1.5, 4.25 ], "autoUv": false },
														"up": { "texture": "#base", "uv": [ 1.0, 4.0, 1.5, 4.25 ], "autoUv": false },
														"down": { "texture": "#base", "uv": [ 1.0, 4.0, 1.5, 4.25 ], "autoUv": false }
													},
													"children": [
														{
															"name": "Cube50",
															"from": [ 0.0, -0.5, 0.25 ],
															"to": [ 0.5, 0.0, 0.75 ],
															"rotationOrigin": [ 0.6, 0.0, 0.5 ],
															"faces": {
																"north": { "texture": "#base", "uv": [ 1.0, 4.0, 1.5, 4.25 ], "autoUv": false },
																"east": { "texture": "#base", "uv": [ 1.0, 4.0, 1.5, 4.25 ], "autoUv": false },
																"south": { "texture": "#base", "uv": [ 1.0, 4.0, 1.5, 4.25 ], "autoUv": false },
																"west": { "texture": "#base", "uv": [ 1.0, 4.0, 1.5, 4.25 ], "autoUv": false },
																"up": { "texture": "#base", "uv": [ 1.0, 4.0, 1.5, 4.25 ], "autoUv": false },
																"down": { "texture": "#base", "uv": [ 1.0, 4.0, 1.5, 4.25 ], "autoUv": false }
															}
														},
														{
															"name": "Cube51",
															"from": [ -3.0, 0.0, 3.0 ],
															"to": [ -2.0, 0.5, 4.0 ],
															"rotationOrigin": [ -2.5, 0.0, 3.2 ],
															"faces": {
																"north": { "texture": "#base", "uv": [ 1.0, 4.0, 1.5, 4.25 ], "autoUv": false },
																"east": { "texture": "#base", "uv": [ 1.0, 4.0, 1.5, 4.25 ], "autoUv": false },
																"south": { "texture": "#base", "uv": [ 1.0, 4.0, 1.5, 4.25 ], "autoUv": false },
																"west": { "texture": "#base", "uv": [ 1.0, 4.0, 1.5, 4.25 ], "autoUv": false },
																"up": { "texture": "#base", "uv": [ 1.0, 4.0, 1.5, 4.25 ], "autoUv": false },
																"down": { "texture": "#base", "uv": [ 1.0, 4.0, 1.5, 4.25 ], "autoUv": false }
															},
															"children": [
																{
																	"name": "Cube52",
																	"from": [ 0.0, -0.5, 0.25 ],
																	"to": [ 0.5, 0.0, 0.75 ],
																	"rotationOrigin": [ 0.6, 0.0, 0.5 ],
																	"faces": {
																		"north": { "texture": "#base", "uv": [ 1.0, 4.0, 1.5, 4.25 ], "autoUv": false },
																		"east": { "texture": "#base", "uv": [ 1.0, 4.0, 1.5, 4.25 ], "autoUv": false },
																		"south": { "texture": "#base", "uv": [ 1.0, 4.0, 1.5, 4.25 ], "autoUv": false },
																		"west": { "texture": "#base", "uv": [ 1.0, 4.0, 1.5, 4.25 ], "autoUv": false },
																		"up": { "texture": "#base", "uv": [ 1.0, 4.0, 1.5, 4.25 ], "autoUv": false },
																		"down": { "texture": "#base", "uv": [ 1.0, 4.0, 1.5, 4.25 ], "autoUv": false }
																	}
																},
																{
																	"name": "Cube53",
																	"from": [ 1.5, 0.0, -1.5 ],
																	"to": [ 2.5, 0.5, -0.5 ],
																	"rotationOrigin": [ 1.5, 0.0, -1.0 ],
																	"faces": {
																		"north": { "texture": "#base", "uv": [ 1.0, 4.0, 1.5, 4.25 ], "autoUv": false },
																		"east": { "texture": "#base", "uv": [ 1.0, 4.0, 1.5, 4.25 ], "autoUv": false },
																		"south": { "texture": "#base", "uv": [ 1.0, 4.0, 1.5, 4.25 ], "autoUv": false },
																		"west": { "texture": "#base", "uv": [ 1.0, 4.0, 1.5, 4.25 ], "autoUv": false },
																		"up": { "texture": "#base", "uv": [ 1.0, 4.0, 1.5, 4.25 ], "autoUv": false },
																		"down": { "texture": "#base", "uv": [ 1.0, 4.0, 1.5, 4.25 ], "autoUv": false }
																	},
																	"children": [
																		{
																			"name": "Cube54",
																			"from": [ 0.0, -0.5, 0.25 ],
																			"to": [ 0.5, 0.0, 0.75 ],
																			"rotationOrigin": [ 0.6, 0.0, 0.5 ],
																			"faces": {
																				"north": { "texture": "#base", "uv": [ 1.0, 4.0, 1.5, 4.25 ], "autoUv": false },
																				"east": { "texture": "#base", "uv": [ 1.0, 4.0, 1.5, 4.25 ], "autoUv": false },
																				"south": { "texture": "#base", "uv": [ 1.0, 4.0, 1.5, 4.25 ], "autoUv": false },
																				"west": { "texture": "#base", "uv": [ 1.0, 4.0, 1.5, 4.25 ], "autoUv": false },
																				"up": { "texture": "#base", "uv": [ 1.0, 4.0, 1.5, 4.25 ], "autoUv": false },
																				"down": { "texture": "#base", "uv": [ 1.0, 4.0, 1.5, 4.25 ], "autoUv": false }
																			}
																		}
																	]
																}
															]
														},
														{
															"name": "Cube55",
															"from": [ 2.0, 0.1, -1.0 ],
															"to": [ 3.0, 0.6, 0.0 ],
															"rotationOrigin": [ 2.5, 0.0, 0.0 ],
															"faces": {
																"north": { "texture": "#base", "uv": [ 1.0, 4.0, 1.5, 4.25 ], "autoUv": false },
																"east": { "texture": "#base", "uv": [ 1.0, 4.0, 1.5, 4.25 ], "autoUv": false },
																"south": { "texture": "#base", "uv": [ 1.0, 4.0, 1.5, 4.25 ], "autoUv": false },
																"west": { "texture": "#base", "uv": [ 1.0, 4.0, 1.5, 4.25 ], "autoUv": false },
																"up": { "texture": "#base", "uv": [ 1.0, 4.0, 1.5, 4.25 ], "autoUv": false },
																"down": { "texture": "#base", "uv": [ 1.0, 4.0, 1.5, 4.25 ], "autoUv": false }
															},
															"children": [
																{
																	"name": "Cube56",
																	"from": [ 0.0, -0.5, 0.25 ],
																	"to": [ 0.5, 0.0, 0.75 ],
																	"rotationOrigin": [ 0.6, 0.0, 0.5 ],
																	"faces": {
																		"north": { "texture": "#base", "uv": [ 1.0, 4.0, 1.5, 4.25 ], "autoUv": false },
																		"east": { "texture": "#base", "uv": [ 1.0, 4.0, 1.5, 4.25 ], "autoUv": false },
																		"south": { "texture": "#base", "uv": [ 1.0, 4.0, 1.5, 4.25 ], "autoUv": false },
																		"west": { "texture": "#base", "uv": [ 1.0, 4.0, 1.5, 4.25 ], "autoUv": false },
																		"up": { "texture": "#base", "uv": [ 1.0, 4.0, 1.5, 4.25 ], "autoUv": false },
																		"down": { "texture": "#base", "uv": [ 1.0, 4.0, 1.5, 4.25 ], "autoUv": false }
																	}
																},
																{
																	"name": "Cube57",
																	"from": [ -7.5, -0.1, 6.2 ],
																	"to": [ -6.5, 0.4, 7.2 ],
																	"rotationOrigin": [ -7.5, -0.1, 6.2 ],
																	"faces": {
																		"north": { "texture": "#base", "uv": [ 1.0, 4.0, 1.5, 4.25 ], "autoUv": false },
																		"east": { "texture": "#base", "uv": [ 1.0, 4.0, 1.5, 4.25 ], "autoUv": false },
																		"south": { "texture": "#base", "uv": [ 1.0, 4.0, 1.5, 4.25 ], "autoUv": false },
																		"west": { "texture": "#base", "uv": [ 1.0, 4.0, 1.5, 4.25 ], "autoUv": false },
																		"up": { "texture": "#base", "uv": [ 1.0, 4.0, 1.5, 4.25 ], "autoUv": false },
																		"down": { "texture": "#base", "uv": [ 1.0, 4.0, 1.5, 4.25 ], "autoUv": false }
																	},
																	"children": [
																		{
																			"name": "Cube58",
																			"from": [ 0.0, -0.5, 0.25 ],
																			"to": [ 0.5, 0.0, 0.75 ],
																			"rotationOrigin": [ 0.6, 0.0, 0.5 ],
																			"faces": {
																				"north": { "texture": "#base", "uv": [ 1.0, 4.0, 1.5, 4.25 ], "autoUv": false },
																				"east": { "texture": "#base", "uv": [ 1.0, 4.0, 1.5, 4.25 ], "autoUv": false },
																				"south": { "texture": "#base", "uv": [ 1.0, 4.0, 1.5, 4.25 ], "autoUv": false },
																				"west": { "texture": "#base", "uv": [ 1.0, 4.0, 1.5, 4.25 ], "autoUv": false },
																				"up": { "texture": "#base", "uv": [ 1.0, 4.0, 1.5, 4.25 ], "autoUv": false },
																				"down": { "texture": "#base", "uv": [ 1.0, 4.0, 1.5, 4.25 ], "autoUv": false }
																			}
																		},
																		{
																			"name": "Cube59",
																			"from": [ 1.0, 0.0, -1.5 ],
																			"to": [ 2.0, 0.5, -0.5 ],
																			"rotationOrigin": [ 1.0, 0.0, -2.0 ],
																			"faces": {
																				"north": { "texture": "#base", "uv": [ 1.0, 4.0, 1.5, 4.25 ], "autoUv": false },
																				"east": { "texture": "#base", "uv": [ 1.0, 4.0, 1.5, 4.25 ], "autoUv": false },
																				"south": { "texture": "#base", "uv": [ 1.0, 4.0, 1.5, 4.25 ], "autoUv": false },
																				"west": { "texture": "#base", "uv": [ 1.0, 4.0, 1.5, 4.25 ], "autoUv": false },
																				"up": { "texture": "#base", "uv": [ 1.0, 4.0, 1.5, 4.25 ], "autoUv": false },
																				"down": { "texture": "#base", "uv": [ 1.0, 4.0, 1.5, 4.25 ], "autoUv": false }
																			},
																			"children": [
																				{
																					"name": "Cube60",
																					"from": [ 0.0, -0.5, 0.25 ],
																					"to": [ 0.5, 0.0, 0.75 ],
																					"rotationOrigin": [ 0.6, 0.0, 0.5 ],
																					"faces": {
																						"north": { "texture": "#base", "uv": [ 1.0, 4.0, 1.5, 4.25 ], "autoUv": false },
																						"east": { "texture": "#base", "uv": [ 1.0, 4.0, 1.5, 4.25 ], "autoUv": false },
																						"south": { "texture": "#base", "uv": [ 1.0, 4.0, 1.5, 4.25 ], "autoUv": false },
																						"west": { "texture": "#base", "uv": [ 1.0, 4.0, 1.5, 4.25 ], "autoUv": false },
																						"up": { "texture": "#base", "uv": [ 1.0, 4.0, 1.5, 4.25 ], "autoUv": false },
																						"down": { "texture": "#base", "uv": [ 1.0, 4.0, 1.5, 4.25 ], "autoUv": false }
																					}
																				}
																			]
																		}
																	]
																}
															]
														}
													]
												}
											]
										}
									]
								},
								{
									"name": "Eyes",
									"from": [ -2.0, 8.0, -0.5 ],
									"to": [ 0.0, 10.0, 22.5 ],
									"rotationOrigin": [ -2.0, 8.0, 0.0 ],
									"faces": {
										"north": { "texture": "#base", "uv": [ 1.5, 1.5, 2.75, 2.5 ], "autoUv": false },
										"east": { "texture": "#base", "uv": [ 1.5, 1.5, 2.25, 2.25 ], "autoUv": false },
										"south": { "texture": "#base", "uv": [ 1.5, 1.75, 2.5, 2.5 ], "autoUv": false },
										"west": { "texture": "#base", "uv": [ 1.75, 1.75, 2.25, 2.25 ], "autoUv": false },
										"up": { "texture": "#base", "uv": [ 1.5, 1.5, 2.5, 2.25 ], "autoUv": false },
										"down": { "texture": "#base", "uv": [ 1.75, 1.5, 2.5, 2.5 ], "autoUv": false }
									}
								},
								{
									"name": "Cube22",
									"from": [ -6.0, 4.02, -0.2 ],
									"to": [ 2.0, 12.22, 21.84 ],
									"rotationOrigin": [ -6.0, 4.0, 0.0 ],
									"faces": {
										"north": { "texture": "#base", "uv": [ 8.25, 6.0, 13.25, 11.0 ], "autoUv": false },
										"east": { "texture": "#base", "uv": [ 8.5, 5.25, 15.0, 10.75 ], "autoUv": false },
										"south": { "texture": "#base", "uv": [ 8.75, 5.0, 14.75, 10.0 ], "autoUv": false },
										"west": { "texture": "#base", "uv": [ 6.75, 5.25, 14.75, 10.75 ], "autoUv": false },
										"up": { "texture": "#base", "uv": [ 5.5, 3.25, 11.0, 7.25 ], "autoUv": false },
										"down": { "texture": "#base", "uv": [ 1.5, 7.75, 4.25, 10.75 ], "autoUv": false }
									}
								},
								{
									"name": "Cube24",
									"from": [ -12.0, 4.5, 1.0 ],
									"to": [ -4.0, 12.7, 21.04 ],
									"rotationOrigin": [ -8.0, 4.0, 12.0 ],
									"faces": {
										"north": { "texture": "#base", "uv": [ 8.25, 6.0, 13.25, 11.0 ], "autoUv": false },
										"east": { "texture": "#base", "uv": [ 9.0, 5.25, 15.5, 10.75 ], "autoUv": false },
										"south": { "texture": "#base", "uv": [ 8.75, 5.0, 14.75, 10.0 ], "autoUv": false },
										"west": { "texture": "#base", "uv": [ 7.5, 5.5, 15.5, 11.0 ], "autoUv": false },
										"up": { "texture": "#base", "uv": [ 9.0, 1.0, 13.25, 4.25 ], "autoUv": false },
										"down": { "texture": "#base", "uv": [ 10.5, 3.5, 15.0, 10.0 ], "autoUv": false }
									}
								}
							]
						}
					]
				}
			]
		}
	]}