{
	"editor": {
		"allAngles": false,
		"entityTextureMode": false
	},
	"textureWidth": 16,
	"textureHeight": 16,
	"textureSizes": {
	},
	"textures": {
		"base": "animalia/mackerel"
	},
	"elements": [
		{
			"name": "MainBody",
			"from": [ 2.0, 2.0, 7.0 ],
			"to": [ 10.0, 5.0, 9.0 ],
			"rotationOrigin": [ 8.0, 0.0, 8.0 ],
			"faces": {
				"north": { "texture": "#base", "uv": [ 0.0, 0.0, 16.0, 6.0 ], "autoUv": false },
				"east": { "texture": "#base", "uv": [ 0.0, 0.0, 3.0, 6.0 ], "autoUv": false },
				"south": { "texture": "#base", "uv": [ 0.0, 0.0, 16.0, 6.0 ], "autoUv": false },
				"west": { "texture": "#base", "uv": [ 0.0, 0.0, 3.0, 6.0 ], "autoUv": false },
				"up": { "texture": "#base", "uv": [ 0.0, 0.0, 8.0, 1.0 ], "autoUv": false },
				"down": { "texture": "#base", "uv": [ 0.0, 5.0, 8.0, 6.0 ], "autoUv": false }
			},
			"children": [
				{
					"name": "Tail1",
					"from": [ 8.0, 0.1, 0.2 ],
					"to": [ 11.0, 2.7, 1.8 ],
					"rotationOrigin": [ 8.0, 0.1, 0.2 ],
					"faces": {
						"north": { "texture": "#base", "uv": [ 0.0, 0.0, 3.0, 6.5 ], "autoUv": false },
						"east": { "texture": "#base", "uv": [ 0.0, 0.0, 2.5, 6.5 ], "autoUv": false },
						"south": { "texture": "#base", "uv": [ 0.0, 0.0, 3.0, 6.5 ], "autoUv": false },
						"west": { "texture": "#base", "uv": [ 0.0, 0.0, 2.5, 6.5 ], "autoUv": false },
						"up": { "texture": "#base", "uv": [ 0.0, 0.0, 3.0, 1.0 ], "autoUv": false },
						"down": { "texture": "#base", "uv": [ 1.0, 5.0, 3.0, 6.5 ], "autoUv": false }
					},
					"children": [
						{
							"name": "Tail2",
							"from": [ 3.0, 0.1, 0.3 ],
							"to": [ 6.0, 2.1, 1.3 ],
							"rotationOrigin": [ 3.0, 0.1, 0.3 ],
							"faces": {
								"north": { "texture": "#base", "uv": [ 0.0, 0.0, 3.0, 6.8 ], "autoUv": false },
								"east": { "texture": "#base", "uv": [ 1.5, 15.5, 3.0, 13.9 ], "autoUv": false },
								"south": { "texture": "#base", "uv": [ 0.0, 0.0, 3.0, 6.8 ], "autoUv": false },
								"west": { "texture": "#base", "uv": [ 0.0, 0.0, 1.0, 2.0 ] },
								"up": { "texture": "#base", "uv": [ 0.0, 0.0, 3.0, 1.0 ], "autoUv": false },
								"down": { "texture": "#base", "uv": [ 0.0, 0.0, 3.0, 1.0 ] }
							}
						}
					]
				},
				{
					"name": "BodyFin",
					"from": [ 3.0, 3.0, 1.0 ],
					"to": [ 5.5, 4.5, 1.0 ],
					"rotationOrigin": [ 3.0, 3.0, 0.0 ],
					"faces": {
						"north": { "texture": "#base", "uv": [ 4.8, 12.4, 0.0, 15.9 ], "autoUv": false },
						"east": { "texture": "#base", "uv": [ 0.0, 0.0, 0.125, 1.5 ] },
						"west": { "texture": "#base", "uv": [ 0.0, 0.0, 0.125, 1.5 ] },
						"up": { "texture": "#base", "uv": [ 0.0, 0.0, 2.5, 0.125 ] },
						"down": { "texture": "#base", "uv": [ 0.0, 0.0, 2.5, 0.125 ] }
					}
				},
				{
					"name": "BodyFin2",
					"from": [ 8.5, 2.6, 1.0 ],
					"to": [ 10.5, 3.6, 1.0 ],
					"rotationOrigin": [ 8.5, 2.6, 0.0 ],
					"faces": {
						"north": { "texture": "#base", "uv": [ 10.0, 13.8, 5.0, 16.1 ], "autoUv": false },
						"east": { "texture": "#base", "uv": [ 0.0, 0.0, 0.125, 1.0 ] },
						"west": { "texture": "#base", "uv": [ 0.0, 0.0, 0.125, 1.0 ] },
						"up": { "texture": "#base", "uv": [ 0.0, 0.0, 2.0, 0.125 ] },
						"down": { "texture": "#base", "uv": [ 0.0, 0.0, 2.0, 0.125 ] }
					}
				},
				{
					"name": "Head",
					"from": [ 0.0, -0.3, -0.1 ],
					"to": [ 2.4, 2.2, 2.1 ],
					"rotationOrigin": [ 0.0, -0.3, -0.1 ],
					"rotationZ": 45.0,
					"faces": {
						"north": { "texture": "#base", "uv": [ 3.0, 9.15, 0.0, 12.0 ], "autoUv": false },
						"east": { "texture": "#base", "uv": [ 0.0, 0.0, 1.0, 1.0 ], "autoUv": false },
						"south": { "texture": "#base", "uv": [ 0.0, 9.15, 3.0, 12.0 ], "autoUv": false },
						"west": { "texture": "#base", "uv": [ 3.0, 9.25, 6.0, 12.0 ], "autoUv": false },
						"up": { "texture": "#base", "uv": [ 0.0, 0.0, 3.0, 1.0 ], "autoUv": false },
						"down": { "texture": "#base", "uv": [ 0.2, 5.0, 1.0, 6.0 ], "autoUv": false }
					},
					"children": [
						{
							"name": "Mouth",
							"from": [ 0.0, 0.0, 0.1 ],
							"to": [ 0.5, 1.7, 2.1 ],
							"rotationOrigin": [ 0.0, 0.0, 0.1 ],
							"rotationZ": 22.5,
							"faces": {
								"north": { "texture": "#base", "uv": [ 0.0, 5.0, 0.5, 6.625 ] },
								"east": { "texture": "#base", "uv": [ 3.1, 9.2, 5.9, 12.0 ], "autoUv": false },
								"south": { "texture": "#base", "uv": [ 0.0, 5.0, 0.5, 6.62 ], "autoUv": false },
								"west": { "texture": "#base", "uv": [ 0.0, 5.0, 3.0, 6.62 ], "autoUv": false },
								"up": { "texture": "#base", "uv": [ 0.0, 3.625, 0.5, 5.625 ] },
								"down": { "texture": "#base", "uv": [ 0.0, 3.625, 0.5, 5.625 ] }
							}
						}
					]
				},
				{
					"name": "TailFin",
					"from": [ 14.0, -1.3, 1.0 ],
					"to": [ 17.0, 3.7, 1.0 ],
					"rotationOrigin": [ 14.0, -1.3, 0.0 ],
					"faces": {
						"north": { "texture": "#base", "uv": [ 11.5, 8.2, 16.0, 16.0 ], "rotation": 180, "autoUv": false },
						"east": { "texture": "#base", "uv": [ 0.0, 0.0, 0.125, 5.0 ] },
						"west": { "texture": "#base", "uv": [ 0.0, 0.0, 0.125, 5.0 ] },
						"up": { "texture": "#base", "uv": [ 0.0, 0.0, 3.0, 0.125 ] },
						"down": { "texture": "#base", "uv": [ 0.0, 0.0, 3.0, 0.125 ] }
					}
				},
				{
					"name": "LBodyFin",
					"from": [ 2.4, 1.1, 2.1 ],
					"to": [ 4.4, 2.1, 2.1 ],
					"rotationOrigin": [ 2.4, 1.1, 0.6 ],
					"rotationY": -22.5,
					"faces": {
						"north": { "texture": "#base", "uv": [ 0.0, 12.5, 4.0, 15.0 ], "rotation": 270, "autoUv": false },
						"east": { "texture": "#base", "uv": [ 0.0, 0.0, 0.125, 1.0 ] },
						"west": { "texture": "#base", "uv": [ 0.0, 0.0, 0.125, 1.0 ] },
						"up": { "texture": "#base", "uv": [ 0.0, 0.0, 2.0, 0.125 ] },
						"down": { "texture": "#base", "uv": [ 0.0, 0.0, 2.0, 0.125 ] }
					}
				},
				{
					"name": "RBodyFin",
					"from": [ 1.4, 1.1, 0.1 ],
					"to": [ 3.4, 2.1, 0.1 ],
					"rotationOrigin": [ 1.4, 1.1, -1.4 ],
					"rotationY": 22.5,
					"faces": {
						"north": { "texture": "#base", "uv": [ 0.0, 12.5, 4.0, 15.0 ], "rotation": 270, "autoUv": false },
						"east": { "texture": "#base", "uv": [ 0.0, 0.0, 0.125, 1.0 ] },
						"west": { "texture": "#base", "uv": [ 0.0, 0.0, 0.125, 1.0 ] },
						"up": { "texture": "#base", "uv": [ 0.0, 0.0, 2.0, 0.125 ] },
						"down": { "texture": "#base", "uv": [ 0.0, 0.0, 2.0, 0.125 ] }
					}
				},
				{
					"name": "BottomFin",
					"from": [ 0.5, -1.0, 1.0 ],
					"to": [ 1.5, 0.0, 1.0 ],
					"rotationOrigin": [ 0.5, -1.0, 0.0 ],
					"faces": {
						"north": { "texture": "#base", "uv": [ 4.0, 7.0, 0.5, 9.0 ], "autoUv": false },
						"east": { "texture": "#base", "uv": [ 0.0, 0.0, 0.125, 1.0 ] },
						"west": { "texture": "#base", "uv": [ 0.0, 0.0, 0.125, 1.0 ] },
						"up": { "texture": "#base", "uv": [ 0.0, 0.0, 1.0, 0.125 ] },
						"down": { "texture": "#base", "uv": [ 0.0, 0.0, 1.0, 0.125 ] }
					}
				},
				{
					"name": "BackFin",
					"from": [ 11.0, -0.8, 1.0 ],
					"to": [ 13.0, 0.2, 1.0 ],
					"rotationOrigin": [ 11.0, -0.8, 0.0 ],
					"faces": {
						"north": { "texture": "#base", "uv": [ 0.0, 9.0, 5.5, 6.6 ], "rotation": 180, "autoUv": false },
						"east": { "texture": "#base", "uv": [ 0.0, 0.0, 0.125, 1.0 ] },
						"west": { "texture": "#base", "uv": [ 0.0, 0.0, 0.125, 1.0 ] },
						"up": { "texture": "#base", "uv": [ 0.0, 0.0, 2.0, 0.125 ] },
						"down": { "texture": "#base", "uv": [ 0.0, 0.0, 2.0, 0.125 ] }
					}
				}
			]
		}
	]}