﻿{
	"enabled": true,
	"code": "worm",
	"sealHours": 8,
	"ingredients": [
		{
			"type": "item",
			"code": "game:compost",
			"quantity": 2
		}
	],
	"output": {
		"type": "item",
		"code": "fishing:bait-worm",
		"stackSize": 1
	}
}