﻿{
	"code": "leviathansegment",
	"class": "EntityLeviathanSegment",
	"attributes": {
		"killedByInfoText": "fishing:leviathan"
	},
	"hitboxSize": {
		"x": 0,
		"y": 0
	},
	"selectionBoxSize": {
		"x": 8,
		"y": 8
	},
	"client": {
		"size": 7,
		"pitchStep": false,
		"renderer": "Shape",
		"shape": { "base": "animalia/leviathansegment" },
		"behaviors": [
			{ "code": "interpolateposition" },
			{ "code": "repulseagents" },
			{
				"code": "health",
				"currenthealthByType": {
					"*": 200
				},
				"maxhealthByType": {
					"*": 200
				}
			}
		]
	},
	"server": {
		"behaviors": [
			{
				"code": "despawn",
				"minSeconds": 5,
				"minPlayerDistance": 500
			},
			{ "code": "repulseagents" }
		]
	}
}